actionmailer (4.1.6)
actionpack (4.2.0, 4.1.6)
actionview (4.2.0, 4.1.6)
activemodel (4.1.6)
activerecord (4.1.6)
activerecord-deprecated_finders (1.0.3)
activerecord-sqlserver-adapter (4.1.0)
activesupport (4.2.0, 4.1.6, 3.1.12)
arel (5.0.1.20140414130214)
bigdecimal (1.2.4)
builder (3.2.2)
bundler (1.7.3)
bundler-unload (1.0.2)
byebug (3.5.1)
coffee-rails (4.0.1)
coffee-script (2.3.0)
coffee-script-source (1.9.0, 1.8.0)
columnize (0.9.0, 0.8.9)
dbi (0.4.5)
debugger-linecache (1.2.0)
deprecated (2.0.1)
e164 (0.3.2)
erubis (2.7.0)
execjs (2.3.0, 2.2.2)
executable-hooks (1.3.2)
gem-wrappers (1.2.7, 1.2.4)
hashie (1.0.0)
hike (1.2.3)
i18n (0.7.0, 0.7.0.beta1, 0.6.11)
io-console (0.4.2)
jbuilder (2.2.4)
jquery-rails (3.1.2)
json (1.8.1)
libv8 (3.16.14.7 x86_64-linux)
loofah (2.0.1)
mail (2.6.3, 2.6.1)
mime-types (2.4.3)
mini_portile (0.6.2)
minitest (5.5.1, 5.4.2, 4.7.5)
mssql (0.0.2)
multi_json (1.10.1)
nokogiri (1.6.6.2)
paint (0.8.7)
polyglot (0.3.5)
power_assert (0.2.2)
psych (2.0.5)
rack (1.6.0, 1.5.2)
rack-test (0.6.3, 0.6.2)
rails (4.1.6)
rails-deprecated_sanitizer (1.0.3)
rails-dom-testing (1.0.5)
rails-html-sanitizer (1.0.1)
railties (4.2.0, 4.1.6)
rake (10.3.2, 10.1.0)
rdoc (4.1.2, 4.1.0)
ref (1.0.5)
restclient (0.10.1)
ruby-ntlm (0.0.1)
ruby-odbc (0.99995)
rubygems-bundler (1.4.4)
rvm (1.11.3.9)
sass (3.2.19)
sass-rails (4.0.4, 4.0.3)
sdoc (0.4.1)
sequel (4.15.0)
slop (3.6.0)
spring (1.1.3)
sprockets (3.0.0.beta.6, 3.0.0.beta.2, 2.11.3, 2.11.0)
sprockets-rails (2.2.4, 2.2.0)
sqlserver (0.0.1)
test-unit (3.0.9, 2.1.3.0)
therubyracer (0.12.1)
thor (0.19.1)
thread_safe (0.3.4)
tilt (1.4.1)
tiny_tds (0.6.2, 0.5.2.rc4)
treetop (1.4.15)
turbolinks (2.5.1)
tzinfo (1.2.2)
uglifier (2.5.3)