866 2736
433 677
552 226
606 654
94 276
738 542
796 8
138 789
671 397
802 492
166 677
371 405
780 417
856 466
563 527
348 566
863 241
212 565
722 742
373 101
467 224
396 17
158 185
197 311
417 97
695 825
424 835
702 570
576 309
444 240
359 694
211 231
234 594
181 105
364 447
249 149
118 142
343 595
822 441
769 35
516 467
790 836
801 574
98 811
24 377
232 265
559 771
63 705
282 175
825 842
264 820
185 195
695 331
222 328
424 671
60 104
323 117
525 776
140 733
70 652
677 444
758 226
278 695
332 283
45 849
124 778
450 734
699 120
80 591
759 129
779 79
265 595
806 449
213 664
203 487
511 573
851 593
163 60
23 536
173 448
247 755
551 762
382 846
181 566
178 194
377 283
31 760
656 378
750 419
701 859
758 419
540 479
281 830
799 290
784 9
417 592
844 696
368 193
459 87
684 63
744 636
391 651
426 605
362 521
435 341
510 204
276 268
538 532
451 683
87 137
36 396
826 836
811 526
385 589
596 15
302 808
384 495
440 49
170 780
682 471
344 104
359 240
362 20
532 328
38 177
592 408
630 575
295 151
133 131
156 36
549 70
298 792
650 117
462 559
407 210
196 34
109 330
770 369
94 678
827 384
815 313
490 524
436 704
330 536
187 737
738 355
445 102
350 794
616 390
74 478
477 382
760 134
812 583
137 201
780 211
208 370
624 635
692 277
331 15
404 260
835 399
393 416
783 674
332 230
481 804
129 581
18 351
638 542
336 284
700 646
663 612
465 646
501 149
781 679
298 180
154 337
287 415
640 759
703 141
664 595
132 486
222 693
540 848
188 637
634 96
506 617
402 860
75 590
284 625
26 589
857 743
130 212
282 70
806 808
37 75
458 583
336 290
63 849
482 567
140 324
178 147
568 375
163 112
699 841
459 115
742 690
673 409
741 521
472 198
842 390
315 266
678 658
37 568
431 110
199 439
91 669
131 825
280 541
744 250
524 768
154 567
17 564
713 855
58 670
828 398
150 230
100 724
341 147
469 505
751 173
437 53
591 771
540 823
633 147
687 704
193 818
416 496
89 833
290 281
277 423
386 443
337 335
746 143
345 319
442 796
313 652
775 633
559 422
592 594
741 383
550 856
835 333
582 156
656 739
804 772
785 769
346 201
205 743
443 222
542 324
216 298
291 386
458 670
31 448
687 245
424 585
325 695
698 670
291 220
606 560
226 517
700 375
91 800
234 804
238 371
476 119
814 422
532 261
449 403
239 464
369 228
763 744
191 423
466 537
803 746
804 228
2 225
739 859
39 164
97 360
761 603
601 373
530 565
345 854
515 37
438 473
367 493
829 402
760 572
399 392
855 738
765 784
366 762
706 334
505 682
235 497
400 842
238 485
131 714
575 624
300 614
323 850
732 609
620 355
336 743
703 321
707 79
817 563
418 478
314 681
737 785
575 667
522 533
246 594
147 789
855 844
215 166
132 682
353 323
778 305
763 280
737 439
587 643
15 170
168 445
227 711
601 680
48 556
16 483
106 105
72 516
58 404
852 385
245 503
836 336
843 398
295 811
423 317
85 345
250 95
748 180
821 512
450 352
755 551
24 581
804 824
824 545
320 124
386 625
593 367
5 580
407 293
84 760
269 260
255 58
39 83
593 835
25 206
613 757
28 173
68 20
197 125
307 30
861 134
439 464
631 572
154 160
744 651
710 480
530 122
126 188
823 821
511 87
849 154
362 555
22 785
578 194
557 378
500 267
349 789
447 731
565 799
15 370
863 542
217 143
168 229
706 432
37 792
703 461
190 656
820 645
655 179
783 421
720 497
627 863
848 592
153 574
9 111
32 472
580 263
587 253
610 525
661 111
371 736
373 12
28 12
727 71
233 204
171 831
759 29
597 797
348 299
20 274
77 212
479 704
405 813
176 235
178 268
90 474
842 231
348 124
738 865
557 219
300 72
505 591
52 591
708 232
674 72
658 398
576 523
703 354
138 448
378 390
488 474
452 224
806 787
291 239
460 96
79 387
28 662
783 427
551 549
130 162
612 98
278 224
65 340
484 160
750 778
783 472
54 781
588 640
493 302
258 286
23 87
833 228
134 515
690 317
175 839
273 496
628 612
439 97
404 155
359 673
219 236
664 783
204 5
386 160
81 131
461 434
318 752
444 795
586 604
182 350
483 259
561 733
16 375
42 218
449 862
319 127
728 639
842 459
422 380
575 142
64 402
686 749
600 569
766 796
675 716
441 854
596 782
425 583
583 79
14 382
841 642
493 399
220 713
523 122
317 791
341 555
859 489
383 577
386 477
243 265
527 126
621 111
345 473
242 678
575 241
285 378
694 222
435 332
775 454
361 157
200 285
73 529
55 641
63 321
857 336
583 554
438 524
371 530
193 629
529 698
191 86
448 208
30 464
621 571
476 335
426 101
264 173
123 213
749 452
290 43
368 791
521 701
847 390
444 78
83 758
83 45
11 824
460 283
816 425
658 752
264 688
29 549
442 768
602 197
569 577
642 450
718 617
6 174
67 853
299 263
580 199
670 282
394 196
752 553
588 135
101 91
222 214
243 367
580 86
47 393
105 370
421 799
336 517
261 133
279 657
619 255
9 625
534 425
610 470
325 328
315 808
173 180
407 249
564 191
692 187
657 367
73 699
20 601
383 850
616 32
784 362
34 805
83 143
774 154
481 449
464 135
519 143
175 760
694 408
162 297
57 504
404 222
116 541
506 625
260 18
800 318
41 487
25 715
431 146
13 686
834 349
440 206
386 150
262 54
374 577
175 229
569 119
200 313
71 675
554 830
281 229
123 525
487 691
128 368
349 195
166 571
360 516
580 833
399 740
698 193
292 101
112 830
385 240
60 416
201 512
338 666
84 775
806 402
527 200
658 105
275 810
593 497
98 679
565 382
144 681
90 800
382 119
366 600
477 555
355 486
638 132
569 310
753 655
661 270
113 229
103 807
353 396
361 626
788 135
731 798
82 405
836 62
821 564
289 224
10 89
835 309
269 541
94 851
168 432
191 571
616 633
483 111
620 33
638 832
363 8
550 316
753 640
276 672
353 709
122 747
527 169
344 406
732 71
626 340
221 592
90 468
295 820
739 15
333 140
500 214
283 53
177 352
397 5
570 393
788 448
420 685
848 629
704 607
524 624
397 150
128 27
388 419
393 813
543 240
752 790
108 254
791 652
274 661
151 671
819 306
76 124
538 771
153 697
316 264
541 278
191 246
766 165
734 505
866 730
153 554
231 289
217 435
788 446
756 189
99 508
528 820
142 759
680 281
293 585
459 337
64 441
581 396
197 115
400 470
865 518
331 757
116 325
454 644
263 215
98 560
598 239
302 140
716 372
713 433
735 424
858 482
619 817
158 213
722 861
352 177
374 40
748 797
530 232
4 650
337 647
29 201
141 357
222 19
366 193
718 26
792 333
630 136
632 215
279 507
762 429
505 700
161 255
250 159
753 723
477 446
333 409
575 622
304 535
768 715
685 7
770 409
865 679
350 612
740 353
97 432
661 782
674 595
604 126
180 419
552 705
650 499
153 652
199 278
778 786
555 435
756 464
300 769
392 98
247 10
653 259
627 37
239 508
24 782
226 332
627 647
66 271
303 816
2 774
204 846
830 341
705 282
680 796
675 766
587 611
477 807
186 519
650 182
190 664
799 778
782 395
166 90
123 621
548 563
183 625
244 577
263 339
156 655
287 601
3 4
560 465
464 651
67 857
128 824
708 263
258 695
578 800
830 554
652 753
636 832
692 210
53 536
199 521
809 365
387 643
151 362
197 459
623 252
494 448
354 802
455 752
731 794
199 149
214 765
776 782
24 134
633 339
688 157
464 642
48 247
712 275
630 769
349 719
192 193
498 263
233 78
228 353
574 840
595 453
597 100
467 259
251 574
5 433
323 677
239 81
169 397
776 760
252 220
118 624
812 414
603 35
768 727
495 226
815 766
228 36
785 24
748 691
483 475
31 396
707 859
137 76
581 830
759 573
715 478
772 773
132 177
135 164
501 41
676 451
330 758
130 507
187 758
298 799
493 625
642 139
622 744
594 583
192 223
675 839
855 717
179 20
94 588
4 169
461 419
264 310
330 59
332 779
405 6
227 250
815 16
732 690
324 679
363 49
254 111
366 549
352 793
3 567
77 612
8 544
834 161
176 540
47 828
743 620
269 338
254 691
811 204
248 382
547 3
435 634
183 573
112 477
442 290
859 130
499 846
727 282
58 16
274 193
22 852
235 692
650 606
134 605
158 713
178 110
307 708
772 471
441 577
5 448
79 329
444 730
412 454
56 766
806 50
25 338
442 74
561 542
451 552
164 502
6 602
98 667
209 847
504 94
13 215
534 753
294 102
355 616
629 726
120 483
448 613
765 461
712 167
235 533
113 686
422 211
707 108
824 795
823 488
255 687
199 594
147 229
520 414
244 668
302 835
247 713
158 423
280 352
645 709
647 26
99 698
662 150
713 490
520 561
318 184
508 420
383 41
97 144
42 166
339 79
448 747
40 464
225 511
334 770
196 168
754 59
420 846
383 420
188 815
506 94
373 485
670 261
283 517
569 707
783 848
705 169
389 859
223 518
316 30
463 217
837 106
229 588
90 258
147 130
497 694
848 858
744 212
240 723
711 642
639 225
622 299
551 654
401 499
769 71
612 453
61 585
189 628
794 790
181 326
32 230
621 220
578 305
505 767
193 341
397 781
532 373
186 195
580 826
223 820
395 85
324 53
696 118
551 392
274 149
756 653
307 344
488 375
525 248
502 54
233 712
116 88
568 613
426 65
617 799
175 5
654 407
386 828
405 443
815 85
157 682
103 633
237 375
248 458
462 861
37 326
61 320
747 500
569 709
364 42
699 572
332 3
510 368
746 747
213 187
681 137
720 866
744 82
34 516
553 524
570 660
402 663
775 783
10 842
514 23
220 545
850 95
234 200
398 688
75 613
192 850
776 280
676 249
627 842
550 40
335 140
263 821
270 574
290 456
121 95
356 406
52 370
720 300
313 573
99 697
672 697
103 845
270 344
115 537
538 295
578 226
84 367
49 443
50 267
823 371
536 360
228 804
815 96
657 130
161 229
14 257
453 314
717 488
257 199
367 292
756 370
404 335
761 643
336 397
355 78
47 721
31 29
328 407
309 86
561 2
660 229
105 804
418 37
807 72
298 543
523 401
802 159
658 526
436 641
623 671
455 836
600 280
170 635
379 329
87 423
74 578
19 626
847 845
724 437
541 521
211 273
269 315
729 359
618 834
359 692
583 291
311 561
300 113
673 65
694 104
587 383
420 706
790 449
48 432
487 364
346 189
58 316
817 225
773 558
43 247
255 311
428 427
507 479
126 825
548 628
364 553
806 592
845 54
333 215
140 530
446 809
506 694
698 296
403 396
187 459
408 65
559 339
483 218
637 591
48 621
613 300
585 263
34 7
552 3
844 193
511 71
576 409
690 433
719 14
154 850
466 488
394 286
788 387
587 318
279 464
644 392
739 564
133 568
389 25
493 85
700 19
119 624
432 297
88 70
87 776
694 848
558 623
839 311
347 250
758 571
798 386
485 344
69 243
14 652
494 238
593 730
522 448
833 544
553 372
515 461
738 670
425 604
266 21
417 135
504 619
558 43
709 69
341 544
845 113
741 628
595 601
507 696
621 553
512 99
677 791
626 833
333 269
546 331
823 308
534 201
292 172
165 698
277 677
118 1
104 805
88 84
711 20
634 774
809 20
330 458
168 822
498 485
82 817
799 625
232 137
638 380
567 160
90 292
395 205
791 440
109 324
760 671
228 93
377 688
159 521
697 178
865 731
662 335
773 269
699 83
262 770
194 515
378 584
747 437
770 590
493 501
238 464
557 53
659 789
700 821
427 24
451 772
268 502
697 509
255 102
242 418
614 252
651 322
148 659
259 327
278 42
846 681
667 41
215 240
443 252
668 822
65 751
484 247
835 681
394 219
769 756
324 280
720 461
205 704
150 323
617 91
121 254
379 821
160 57
578 52
481 627
449 221
234 227
659 267
164 608
54 451
671 588
41 846
723 349
526 601
620 281
32 80
384 618
259 518
794 7
831 451
209 48
356 651
213 467
123 823
16 847
21 289
136 170
251 435
197 725
716 93
497 699
738 603
278 181
280 276
545 835
285 29
530 153
861 745
588 103
663 66
425 394
614 121
670 581
606 327
111 538
97 120
260 809
464 319
579 525
709 582
509 828
751 860
554 504
669 409
482 463
453 604
403 669
212 862
619 246
396 63
716 849
346 593
293 118
741 855
522 35
392 655
263 579
824 478
672 141
534 858
79 714
351 849
778 207
210 509
411 849
267 846
705 829
129 446
717 789
384 535
223 513
207 763
229 317
573 97
332 191
630 114
405 581
851 182
464 596
390 727
638 18
250 819
736 449
110 124
754 365
348 324
349 114
651 255
621 219
783 380
340 5
274 147
131 253
776 230
61 100
834 420
321 212
319 865
571 699
419 512
497 733
479 336
347 547
380 480
97 340
208 108
523 682
813 762
751 576
61 151
278 626
852 422
818 649
356 728
801 10
214 33
217 310
550 201
169 443
704 149
443 123
635 344
341 631
196 823
808 286
259 70
320 161
399 248
646 75
756 834
335 262
267 151
735 52
318 550
246 595
565 623
175 440
177 809
823 380
502 713
170 50
845 71
406 821
335 771
514 101
715 556
310 448
607 618
593 370
512 223
128 443
847 607
771 40
772 442
591 230
631 698
209 311
193 29
232 411
768 663
110 476
271 502
440 712
224 314
441 804
80 36
836 593
657 255
118 722
527 808
684 541
295 203
447 403
282 313
193 866
215 607
818 6
311 459
478 669
62 523
433 377
550 155
92 7
481 85
393 622
540 706
394 234
626 187
805 653
420 795
295 371
456 840
724 563
284 397
372 553
341 263
641 1
769 575
203 807
239 54
779 805
652 557
161 303
86 156
526 413
286 347
570 334
435 412
809 239
646 747
671 753
175 797
788 819
454 347
718 233
666 403
840 299
388 235
143 7
7 180
12 1
655 183
620 763
416 244
362 647
328 374
534 719
438 336
760 782
283 395
356 835
785 77
34 101
329 646
257 532
752 138
498 86
245 85
691 829
128 787
346 725
330 397
433 196
380 792
449 114
733 711
24 412
492 848
651 732
393 745
321 836
267 381
177 853
149 655
184 23
184 22
810 256
172 344
729 240
584 536
15 792
370 4
618 590
361 388
783 137
731 712
73 197
475 156
762 814
780 672
394 487
858 128
593 632
465 684
117 611
822 85
863 253
80 302
828 242
598 32
624 112
170 230
425 118
243 795
620 319
551 481
566 701
644 95
384 648
59 156
8 815
688 779
709 639
31 647
794 488
75 316
628 235
403 261
631 259
245 191
209 566
150 204
30 548
514 494
471 423
772 509
4 586
21 372
629 719
84 83
597 256
247 348
279 424
303 149
475 849
596 584
25 738
686 308
303 689
167 548
145 691
536 146
206 292
616 405
804 639
212 448
655 326
261 559
383 771
630 545
556 700
315 124
286 169
542 379
51 841
719 416
849 20
775 857
814 769
214 733
475 639
783 228
489 645
123 322
248 528
564 440
359 731
806 469
826 66
440 46
711 389
62 510
475 179
430 823
460 510
240 491
610 230
699 724
261 843
124 424
627 630
165 353
281 745
413 508
828 236
14 671
716 763
553 175
771 96
699 527
259 321
282 95
701 130
663 594
48 522
451 461
328 128
146 507
862 136
611 136
243 354
481 435
789 157
27 127
323 647
387 469
487 648
541 804
109 587
260 595
49 736
107 54
805 756
814 201
817 625
602 306
769 3
516 435
248 239
48 513
234 247
441 726
117 621
812 579
482 314
157 636
237 452
196 5
545 764
478 569
551 669
390 552
618 711
127 378
590 571
131 860
356 315
645 865
381 701
713 826
665 621
280 817
746 106
176 279
140 216
725 152
665 130
702 452
613 674
854 180
154 561
539 364
250 484
364 87
59 98
4 128
148 170
785 378
97 505
808 298
493 518
518 340
99 521
29 313
412 423
622 541
36 349
493 257
387 310
84 479
764 156
32 551
219 170
683 494
406 700
668 7
83 84
212 379
859 667
550 39
344 775
807 588
505 758
744 564
269 402
613 8
804 99
524 474
4 628
385 833
500 301
283 321
835 812
472 668
199 102
310 111
810 25
285 821
791 468
212 200
531 746
236 694
146 129
292 573
225 67
564 354
621 836
584 821
513 241
180 107
495 591
236 709
183 515
478 197
505 105
514 144
200 291
15 187
359 516
608 320
298 160
221 494
276 306
431 481
578 100
101 291
230 324
14 581
790 250
518 31
76 566
373 777
229 463
177 364
808 827
147 436
93 69
645 355
847 108
775 78
71 527
155 692
161 208
570 124
718 774
827 208
739 850
494 826
498 51
209 631
156 429
123 489
765 538
125 453
342 821
825 349
812 352
723 400
465 438
266 243
502 496
264 218
750 492
545 181
332 61
276 4
759 173
212 400
858 536
730 469
307 444
623 215
863 147
168 864
543 317
137 828
486 55
324 150
587 654
793 757
18 255
345 478
458 829
350 824
483 450
581 511
865 657
493 816
850 660
22 243
829 225
81 483
452 129
787 798
438 468
131 322
705 566
426 484
119 657
443 857
85 801
125 149
672 806
643 319
275 834
804 155
80 180
811 12
641 569
862 64
167 577
616 149
136 650
92 731
556 521
23 167
638 15
782 688
291 266
112 392
167 679
647 217
297 554
737 858
140 395
378 583
201 691
789 461
80 171
581 171
731 332
400 393
115 68
165 366
439 270
762 103
726 522
553 64
679 109
368 453
648 199
497 156
352 180
671 752
502 453
395 448
325 52
309 266
406 124
561 145
543 1
432 656
859 283
73 52
30 654
185 137
147 321
132 555
408 350
542 513
264 56
751 832
714 205
440 420
251 40
278 114
557 41
853 646
412 263
316 775
248 50
607 427
630 674
832 474
685 611
232 172
506 284
383 141
292 793
556 720
409 598
158 742
490 776
677 127
425 227
543 209
678 525
471 257
273 506
81 689
633 547
301 706
495 65
411 222
693 113
455 820
539 218
582 682
624 439
400 673
601 642
630 583
426 25
550 329
181 559
607 264
277 800
757 187
547 804
818 708
784 572
158 348
219 350
681 245
853 462
656 203
693 122
628 834
761 359
377 427
197 705
309 7
811 646
70 240
209 243
273 542
822 282
199 472
36 439
722 783
205 316
8 669
208 634
137 548
525 62
175 74
159 682
551 585
805 798
478 731
59 148
463 446
449 430
639 49
132 70
556 701
151 38
546 78
505 42
631 244
342 695
384 308
256 761
354 212
376 313
466 144
584 456
548 214
586 865
56 342
202 477
277 493
479 682
209 712
8 419
584 205
707 860
856 428
412 45
770 523
804 692
537 330
335 692
249 69
240 768
99 637
722 863
616 230
836 756
304 557
102 624
657 495
362 383
253 177
825 560
607 818
186 695
206 388
354 94
246 623
526 589
431 651
86 393
36 379
294 177
313 739
23 408
835 674
260 436
505 817
516 15
540 808
544 299
175 178
161 733
437 568
632 866
663 644
685 663
616 674
354 811
372 540
475 679
4 12
117 645
77 44
751 572
633 18
542 692
285 662
353 820
187 680
442 144
137 204
191 385
715 350
509 755
539 556
171 579
250 804
471 315
697 808
518 48
23 313
194 531
233 47
666 543
313 749
298 46
671 148
198 208
381 336
753 783
203 231
545 539
323 555
255 22
734 282
334 20
460 490
676 330
549 196
751 120
76 763
702 340
6 705
79 448
779 579
216 683
404 240
614 389
779 103
581 799
378 283
217 548
197 203
510 130
113 417
576 775
297 298
192 16
543 343
519 356
11 8
552 756
660 637
76 754
701 770
278 614
85 780
603 707
509 369
385 727
639 197
226 40
325 820
662 6
557 411
416 501
419 746
313 550
614 597
375 245
746 140
329 492
785 151
659 288
273 399
862 391
112 818
295 329
479 764
407 656
173 712
453 178
506 311
599 780
731 188
128 1
534 84
24 669
773 709
315 597
45 121
193 475
412 611
159 241
625 771
385 92
847 329
429 363
89 523
346 443
219 187
648 566
434 288
836 839
418 706
317 294
665 847
812 466
208 795
390 311
214 348
430 128
168 579
370 118
227 406
362 793
349 767
440 120
777 708
101 188
234 18
162 615
182 42
132 229
225 624
499 624
10 302
236 510
788 435
1 267
387 388
671 636
86 215
159 231
774 566
314 707
452 391
614 638
232 58
247 832
783 292
735 650
150 601
106 807
482 51
527 803
73 604
257 850
404 354
393 837
301 564
378 326
656 717
839 162
273 818
237 1
848 357
666 161
483 693
100 498
798 418
570 254
757 166
631 70
63 95
484 427
326 136
342 2
336 195
486 87
680 657
739 398
377 542
251 654
360 844
548 207
493 325
203 182
24 174
104 551
855 123
569 401
757 282
410 520
859 572
308 714
61 473
804 323
584 207
802 327
327 404
235 330
145 614
289 252
457 751
742 287
745 521
357 398
486 660
108 772
17 217
438 156
539 124
707 581
232 611
303 823
400 707
704 756
99 680
34 152
736 34
257 511
805 41
69 39
435 786
77 167
559 708
635 235
660 771
332 256
764 681
231 217
126 828
753 22
639 746
511 866
460 826
494 532
667 540
299 403
102 334
696 146
626 537
532 632
275 679
679 774
577 708
667 653
527 754
839 241
241 462
554 700
78 203
106 39
107 841
456 10
94 829
834 748
230 699
103 342
860 440
611 441
171 811
334 94
279 747
547 468
469 355
254 746
244 335
62 775
85 717
680 98
829 52
261 274
465 625
749 178
487 810
109 19
347 255
489 836
596 731
298 354
851 575
375 734
32 90
380 688
517 300
421 120
278 467
559 552
203 399
73 70
385 309
156 189
361 492
622 406
790 791
276 259
132 520
663 828
722 280
304 363
545 164
528 156
807 145
457 594
132 834
686 6
300 776
293 748
735 709
591 703
703 492
616 851
780 68
818 147
92 615
660 772
476 51
31 183
298 648
339 381
586 774
590 710
166 84
42 373
773 527
260 400
69 226
94 673
242 675
298 593
746 83
590 341
442 295
244 239
318 617
232 356
676 60
471 479
509 776
864 308
264 113
230 25
279 343
270 46
145 378
806 172
510 249
424 378
794 466
94 181
146 773
117 388
44 140
52 785
326 400
787 862
684 404
501 150
377 613
766 232
434 698
427 591
65 192
431 497
107 743
93 349
263 114
621 529
196 23
507 401
235 244
255 791
112 782
349 100
172 40
579 632
231 437
750 517
610 725
331 355
318 42
327 605
644 512
323 96
43 170
448 180
506 445
283 845
719 326
679 164
348 541
42 187
189 184
742 438
318 331
736 709
532 13
823 542
424 503
813 771
544 24
671 688
431 220
424 816
592 602
525 9
793 149
426 861
415 576
159 775
589 259
636 678
229 591
88 162
533 385
787 151
680 315
717 95
662 255
591 634
560 486
378 695
839 411
660 404
75 54
368 60
114 528
523 782
28 224
598 651
659 724
49 275
274 151
437 820
465 189
156 860
582 159
394 524
714 495
292 857
294 408
576 799
812 554
325 196
496 431
2 233
843 59
384 838
446 182
87 236
451 626
33 115
326 365
861 163
609 509
810 739
173 726
70 838
534 250
495 385
765 686
624 526
182 256
113 708
866 701
652 411
302 563
675 586
290 298
222 266
369 697
180 461
589 23
224 852
479 740
406 241
783 829
792 374
176 812
155 835
71 319
265 621
324 819
807 379
829 714
63 524
751 46
561 767
95 1
226 285
511 283
621 750
750 631
566 730
551 696
204 31
164 91
418 16
743 746
357 17
249 290
677 701
535 819
37 420
222 47
521 129
100 178
651 514
289 623
198 52
471 398
111 103
573 24
439 225
78 713
579 465
11 531
836 448
506 559
739 753
588 46
1 204
205 330
353 46
618 664
639 589
43 198
605 280
62 820
221 676
777 423
522 393
395 293
632 206
444 116
119 79
467 662
819 96
568 288
350 748
294 73
710 138
820 1
307 238
746 694
302 104
123 342
551 686
58 1
11 758
563 699
656 225
837 761
592 564
556 732
832 381
832 802
852 699
83 693
802 582
342 312
435 368
74 16
497 766
499 408
780 162
34 303
571 585
806 239
367 763
759 734
316 420
338 739
228 6
446 85
840 203
397 527
625 33
861 128
720 609
419 799
459 218
774 322
388 665
668 123
272 325
362 201
589 822
257 588
82 184
526 504
323 702
838 446
536 855
81 342
278 714
137 377
690 193
