817 1145
66 381
73 544
454 680
370 226
67 407
527 446
22 154
714 505
801 658
781 785
61 503
533 485
35 710
252 391
629 486
515 7
103 674
225 25
135 501
610 563
704 666
264 76
292 559
733 595
424 469
560 642
316 429
318 555
178 496
265 523
670 568
402 287
463 563
440 768
276 729
545 380
288 783
267 775
558 676
393 700
84 188
265 638
213 485
412 763
144 692
377 53
158 793
512 392
87 519
526 285
681 276
404 586
562 591
210 11
211 186
414 770
731 429
207 348
806 395
196 279
382 330
672 261
659 606
565 720
10 16
800 451
347 694
612 768
487 494
382 591
86 447
514 530
101 753
106 429
539 293
387 564
654 209
738 417
33 239
167 670
319 235
90 715
171 731
456 294
475 287
811 307
89 599
782 331
634 728
661 463
105 321
29 802
623 3
205 740
800 210
94 760
66 128
110 730
278 328
304 728
294 716
713 344
402 254
468 158
320 119
679 788
568 733
174 464
122 631
673 109
769 240
668 752
86 368
639 332
466 304
489 752
262 151
579 595
305 432
628 49
655 623
151 63
19 488
102 323
716 412
619 580
411 639
533 278
617 22
690 196
51 260
355 808
185 544
506 153
421 668
628 804
239 560
406 32
552 548
396 85
162 304
504 371
702 143
52 246
741 640
553 258
553 213
144 803
235 297
774 767
131 779
298 431
260 396
723 108
779 278
205 147
688 179
363 499
206 541
121 157
618 549
623 504
85 219
667 153
52 577
639 655
358 528
315 752
183 709
207 381
171 628
637 77
98 239
281 555
774 698
777 569
51 406
286 635
689 485
623 40
439 432
137 321
191 18
507 215
34 767
470 538
566 559
730 309
744 31
473 795
76 663
122 173
685 607
251 197
378 495
338 480
554 254
543 740
295 678
473 297
369 276
228 382
154 671
252 482
437 229
709 49
77 190
100 578
310 417
12 282
616 474
267 646
709 547
551 611
112 48
622 341
100 19
589 291
347 591
432 323
663 349
25 354
592 751
796 301
254 633
677 759
747 243
453 584
511 267
305 776
559 525
203 676
417 44
530 546
111 771
516 200
305 62
594 292
38 789
589 267
218 712
35 457
684 323
291 486
633 687
461 254
6 676
200 539
549 573
369 769
773 360
680 228
748 789
260 711
711 661
226 272
705 379
237 570
74 364
252 163
90 770
133 110
668 788
178 777
674 750
211 578
688 19
438 405
228 183
494 683
666 84
100 45
167 27
247 221
730 303
155 627
428 240
478 246
363 23
219 778
788 28
729 93
759 619
740 569
380 614
478 621
668 782
693 558
339 690
362 798
165 653
223 114
556 282
803 129
458 403
222 598
640 49
402 176
317 451
272 697
75 481
239 37
367 80
386 536
598 638
65 376
368 592
234 161
608 230
354 72
55 8
304 681
250 685
783 267
275 482
521 478
415 138
761 175
103 316
171 377
529 748
811 711
434 745
757 91
734 738
100 494
367 796
740 629
17 67
228 569
536 375
726 587
68 671
737 158
733 804
756 347
662 803
47 796
721 744
468 140
695 471
465 615
757 502
763 562
585 739
68 81
210 484
16 119
41 394
738 544
434 509
699 644
297 236
264 167
302 814
744 422
453 444
143 805
226 317
289 123
774 516
31 199
638 320
170 314
550 31
54 389
271 740
441 141
670 346
666 689
784 372
96 35
64 648
6 87
80 128
207 502
522 374
59 244
686 816
457 436
375 184
196 143
179 285
776 90
273 329
622 538
325 117
595 241
649 536
201 38
555 614
385 725
622 369
504 400
74 708
587 613
125 138
621 411
469 222
80 566
756 284
646 597
102 698
779 255
153 296
269 480
461 107
750 171
454 489
316 113
665 145
239 176
711 333
504 741
157 501
231 25
219 400
37 185
399 797
422 279
233 561
48 431
87 203
523 248
706 568
452 52
535 184
424 538
667 445
387 568
53 468
631 541
89 510
337 380
250 634
388 709
738 491
478 541
201 631
706 375
436 490
328 317
159 441
731 621
799 416
223 798
361 716
402 224
582 626
98 380
454 309
803 87
641 272
690 814
63 816
771 62
79 161
134 596
565 452
5 219
343 364
587 621
15 399
468 603
736 476
713 301
113 521
112 543
573 597
506 631
570 608
765 138
715 291
141 379
177 90
59 778
412 465
153 546
564 402
707 490
696 778
705 148
236 735
69 414
633 605
560 336
716 494
619 606
44 416
378 407
770 808
426 275
464 695
740 208
614 611
780 562
527 6
748 100
334 352
666 352
511 523
720 307
533 178
321 116
53 302
312 435
363 585
692 246
510 364
199 664
562 142
439 450
460 797
723 258
358 418
666 489
624 133
808 769
663 519
586 761
526 790
432 41
764 580
311 464
118 77
350 366
605 766
448 269
710 203
407 405
376 55
591 196
612 258
419 401
311 216
721 785
13 566
648 440
239 664
63 169
447 691
378 150
778 531
411 397
482 215
99 530
799 333
354 219
770 313
617 645
201 248
254 176
691 235
734 525
620 520
312 297
127 231
104 816
455 399
555 158
90 672
606 151
639 342
420 559
597 510
702 572
725 228
411 593
260 633
63 226
50 21
169 435
534 127
78 284
627 530
171 622
696 316
3 256
806 380
153 179
730 188
213 457
730 206
790 615
407 154
663 577
151 524
552 624
49 529
419 750
811 717
83 715
367 504
158 501
339 400
472 272
745 200
68 494
635 198
328 596
467 781
625 184
229 15
5 250
258 386
18 75
745 89
145 645
112 43
679 437
596 25
684 558
716 27
803 109
407 427
686 473
733 707
334 615
675 225
490 815
406 644
72 275
351 701
307 515
664 247
41 242
141 767
635 131
231 610
434 798
301 309
231 58
67 473
128 216
520 693
93 736
338 762
153 761
749 807
70 150
602 135
471 774
90 467
693 312
260 288
292 682
3 184
16 485
703 135
129 77
100 388
466 324
159 239
693 766
580 186
193 531
544 805
296 615
107 437
705 362
589 436
296 772
117 734
733 584
23 63
376 622
798 436
302 569
179 593
547 779
220 680
131 31
346 645
120 216
371 812
160 191
246 198
589 724
65 43
217 598
343 271
801 770
500 630
376 135
587 647
602 23
291 119
548 516
803 673
24 15
269 766
7 645
785 278
246 5
12 720
543 180
123 425
199 744
13 84
113 36
660 496
381 422
636 528
197 36
796 401
661 608
73 405
113 747
629 739
499 399
577 230
208 655
39 572
600 269
706 174
233 665
581 803
199 372
270 274
381 349
655 98
336 158
506 669
331 777
161 462
404 224
136 777
344 547
548 572
506 427
20 587
108 299
683 184
739 423
157 772
522 18
411 797
91 503
318 449
166 774
767 388
713 725
740 40
679 702
158 758
807 456
142 588
780 708
372 361
701 653
481 359
721 538
727 312
18 276
806 453
75 347
44 565
359 274
399 117
737 662
195 246
327 705
287 665
14 433
649 188
409 747
107 788
191 250
191 281
769 22
29 203
179 754
406 266
529 582
177 638
162 425
451 480
216 38
147 250
440 112
308 638
147 462
780 437
469 714
20 283
533 299
799 227
201 664
236 572
633 630
353 97
745 53
551 468
477 519
660 25
69 352
760 199
525 611
570 124
695 706
622 358
113 2
120 682
580 803
208 505
727 635
270 137
74 566
439 132
488 494
234 293
258 732
736 372
36 684
674 586
316 98
538 453
287 119
174 309
72 669
222 600
298 681
768 252
686 508
476 644
632 797
322 252
244 664
809 405
344 794
250 41
398 763
681 509
63 557
654 291
210 136
561 270
149 376
363 717
73 93
663 362
744 151
418 210
600 20
49 584
628 724
692 212
561 638
750 600
635 589
70 802
272 309
494 640
640 488
311 790
530 417
501 703
637 796
576 603
337 787
104 732
312 519
443 55
233 706
599 683
178 176
783 330
457 272
336 640
433 20
391 369
537 482
584 166
146 725
427 409
419 260
509 740
478 428
403 457
712 237
350 53
466 793
250 26
128 366
610 62
170 740
788 295
535 770
460 472
769 284
51 205
710 305
546 209
69 318
412 453
423 480
360 125
737 782
635 274
755 390
542 121
86 165
803 712
501 223
411 203
123 709
392 816
144 754
194 282
140 181
120 286
614 338
91 219
636 80
39 385
461 453
300 504
257 530
688 123
40 520
314 459
145 221
96 228
644 482
174 58
246 543
697 629
56 274
70 786
557 738
428 619
680 396
803 352
805 76
63 69
365 460
402 465
278 196
76 351
404 700
722 305
475 62
555 676
83 69
564 49
698 557
285 592
49 367
544 510
92 496
728 433
104 395
619 197
300 473
247 334
416 775
698 642
51 600
450 812
679 106
770 485
229 99
809 70
692 187
739 546
28 49
349 600
506 439
136 14
98 104
326 656
437 392
87 385
357 506
316 730
678 501
480 812
574 102
353 21
302 209
346 238
307 723
696 412
90 541
172 608
56 567
637 588
430 33
172 248
30 522
809 62
11 159
393 754
156 272
454 271
94 464
96 705
763 26
437 343
403 476
288 207
64 153
131 87
571 18
750 71
135 519
131 235
52 61
714 280
584 467
588 180
366 160
435 129
281 712
458 553
407 164
653 102
223 210
257 645
571 412
804 78
491 118
415 780
170 789
794 529
27 216
551 267
129 160
313 231
172 393
525 651
607 220
29 191
650 459
7 367
543 388
541 234
729 691
618 229
225 197
732 111
95 525
517 344
293 512
17 119
313 194
95 67
325 791
719 175
312 178
373 807
419 104
100 499
807 808
29 691
791 232
478 232
595 782
50 346
645 531
235 373
690 518
273 396
609 295
799 148
86 193
576 701
100 203
107 231
478 379
506 719
462 650
522 465
785 492
701 753
678 171
330 761
293 499
276 647
249 187
452 281
248 279
760 460
244 165
696 502
444 295
101 183
185 598
607 703
456 283
383 236
394 158
288 15
44 539
334 190
736 665
502 511
723 634
564 404
177 788
481 591
625 568
779 577
781 594
219 547
221 517
317 411
43 10
410 182
532 563
275 317
360 776
471 462
695 661
417 489
512 41
270 788
146 299
788 142
508 184
526 669
31 107
40 675
111 440
243 134
498 450
657 701
753 37
182 90
247 8
741 13
227 94
770 106
133 526
308 444
332 57
288 202
795 158
86 550
780 23
610 462
528 608
92 262
785 100
93 123
