1000 9882
772 9
734 864
682 967
60 855
932 514
351 304
816 769
926 202
655 776
34 834
592 984
298 95
741 201
320 571
194 28
251 85
795 419
312 241
5 84
264 82
700 426
90 332
787 94
184 137
223 40
887 81
264 33
263 941
280 790
895 634
914 39
130 598
630 509
649 210
83 618
389 983
429 554
359 681
149 711
807 641
60 266
578 203
317 149
108 126
221 313
387 91
179 221
677 102
829 171
922 895
871 304
939 118
474 838
697 777
572 243
560 715
57 163
464 406
712 534
396 505
568 538
862 348
311 206
258 502
315 253
124 889
895 412
862 751
485 480
499 455
871 103
396 735
179 665
421 892
270 863
874 3
716 827
287 985
777 649
975 298
347 451
870 52
179 538
441 156
798 160
894 265
909 862
775 144
870 278
161 158
146 586
698 495
882 320
440 467
99 630
794 954
744 353
561 925
871 696
592 821
649 306
8 646
996 95
4 511
281 662
873 812
445 141
786 909
455 250
425 291
846 616
651 586
526 874
708 521
394 753
696 81
851 925
352 775
575 507
192 752
449 344
194 258
303 164
363 377
130 570
293 94
317 72
710 417
482 429
44 875
540 96
207 300
652 618
250 140
322 529
457 302
535 319
310 388
960 403
283 358
749 743
108 241
662 678
14 790
978 523
10 777
726 569
306 140
144 63
553 149
672 741
712 562
838 182
107 440
344 918
862 312
3 261
695 52
671 850
784 126
913 670
58 383
990 412
777 837
75 97
225 262
903 383
483 998
871 139
858 742
516 732
650 554
697 740
945 958
427 656
410 547
429 261
287 891
591 169
663 524
850 21
430 582
194 529
855 356
231 526
513 227
73 692
2 616
370 366
396 54
428 338
142 608
322 410
646 368
955 419
82 717
872 402
229 795
690 799
650 241
890 730
337 682
554 341
648 914
521 356
795 581
8 305
655 241
934 392
555 69
632 997
722 686
392 63
670 406
29 310
964 759
839 261
731 948
886 800
173 843
728 446
860 983
312 741
921 825
709 954
140 941
895 899
416 643
164 481
383 255
814 415
710 284
213 796
144 893
643 733
71 338
884 551
97 819
844 545
80 830
230 320
913 856
182 487
992 959
420 440
684 925
611 903
725 787
62 845
767 8
515 77
662 940
357 980
638 319
380 539
932 418
831 700
840 321
489 271
244 489
585 403
110 470
736 1
741 272
297 911
319 334
656 322
750 550
971 791
149 267
152 97
996 418
176 167
877 609
362 574
570 123
845 131
607 192
94 800
872 383
67 31
622 335
16 719
70 124
157 420
111 206
43 38
29 909
786 578
626 133
882 27
521 311
320 720
214 60
346 876
681 885
593 485
542 302
598 738
243 450
345 44
74 594
311 771
756 806
138 547
750 188
492 212
147 851
921 868
320 203
21 886
650 837
303 92
751 594
365 499
437 998
480 949
354 4
248 767
374 67
965 548
507 622
383 147
754 485
500 413
619 929
691 44
729 225
876 16
472 374
511 63
581 485
651 661
879 768
554 943
923 382
963 903
467 42
16 50
812 750
933 265
240 720
45 953
193 718
172 589
1 307
292 790
687 495
447 586
33 898
505 701
353 881
7 402
858 734
326 588
590 777
297 858
589 774
543 125
124 683
859 824
582 79
716 871
573 694
63 792
101 213
159 501
418 145
94 934
265 419
760 786
281 415
673 941
216 816
333 403
107 320
316 714
446 93
968 989
358 101
792 299
811 121
271 131
463 683
377 558
425 165
434 415
644 318
762 699
28 11
532 395
151 847
84 274
735 29
442 724
868 434
961 240
89 301
606 266
477 942
301 251
429 454
344 157
259 148
305 854
606 36
49 815
849 416
760 404
614 531
103 26
585 879
838 75
72 950
879 917
187 455
244 156
779 699
407 730
694 343
984 715
393 586
790 25
131 652
483 973
980 383
966 702
291 498
712 872
166 950
25 2
723 471
617 696
428 73
836 862
230 197
642 179
112 740
963 341
699 191
542 795
245 953
730 539
965 400
146 568
788 511
475 908
556 115
205 27
320 971
615 464
251 677
858 327
968 795
272 786
312 287
6 487
856 860
907 360
52 773
683 918
800 675
394 412
345 330
787 415
241 169
497 7
741 236
356 334
714 569
259 679
385 864
247 228
708 522
35 908
125 648
240 382
539 492
730 369
335 701
114 746
381 175
389 970
321 908
568 507
786 78
773 852
387 41
481 326
796 155
155 5
159 494
240 939
829 93
795 85
541 585
999 781
446 919
606 113
936 413
39 796
912 166
434 854
770 796
878 986
790 219
836 421
54 710
954 464
681 376
19 897
520 954
153 183
27 666
67 601
620 891
378 634
733 52
924 352
183 23
482 684
301 168
766 420
641 267
515 270
503 717
357 145
645 923
385 230
650 698
23 684
358 261
529 751
876 706
950 89
31 997
437 186
42 586
519 460
432 925
86 659
777 902
985 555
949 128
843 279
881 714
254 596
437 92
789 823
792 69
613 19
371 728
501 777
467 921
949 49
255 798
792 244
665 618
137 1
449 279
691 132
472 944
398 472
293 654
167 165
299 373
85 300
730 51
313 433
333 526
503 354
566 580
167 395
260 255
28 115
885 805
127 391
952 839
200 940
740 302
9 650
161 967
625 154
257 640
627 884
758 414
923 119
586 24
396 205
438 624
330 89
684 888
904 776
64 37
709 731
857 872
718 683
700 498
849 968
866 998
945 509
374 689
467 17
397 556
89 519
790 231
504 10
288 795
110 778
476 112
579 639
645 817
405 444
997 562
228 576
745 442
170 102
350 611
768 751
785 583
291 394
42 780
386 394
25 250
716 892
366 957
760 904
104 748
620 652
859 844
492 883
895 782
659 597
879 502
935 256
869 12
851 529
212 769
575 79
363 887
78 386
6 431
66 346
998 627
871 707
569 433
207 959
315 845
252 480
772 641
195 640
312 932
705 851
533 977
229 609
397 341
289 436
442 846
541 382
545 891
468 926
804 528
825 475
679 464
739 61
98 175
564 134
218 756
535 753
499 945
227 382
487 176
363 110
623 772
535 358
59 425
294 528
83 287
266 709
908 788
340 438
857 836
841 335
948 565
808 128
348 841
455 551
887 544
554 575
532 385
535 181
828 417
137 221
175 851
262 443
559 307
84 657
345 872
430 893
144 294
911 805
555 772
132 979
270 833
771 976
629 812
775 904
443 355
673 578
641 492
21 386
149 189
334 251
916 145
119 528
319 242
232 172
621 942
17 832
345 595
355 103
238 390
315 907
933 707
665 689
691 945
584 319
694 804
509 546
740 162
298 93
281 809
835 142
85 371
268 821
696 968
626 57
441 691
226 683
613 781
113 219
954 913
539 515
367 666
260 32
564 118
123 398
54 20
198 476
461 19
365 325
244 682
799 866
726 966
378 48
126 690
515 699
401 15
38 452
648 24
978 771
904 994
9 706
516 23
516 44
131 51
758 454
688 920
746 381
434 32
114 946
814 327
391 402
835 1000
767 493
843 469
719 334
481 116
582 50
620 129
914 632
315 13
478 587
923 458
570 126
637 578
603 862
958 980
53 714
509 207
789 493
370 535
775 718
634 660
569 851
732 233
883 367
591 38
707 573
999 317
675 91
200 57
291 322
718 351
195 267
354 978
832 558
392 747
157 437
608 5
37 827
622 527
557 180
68 903
141 845
596 129
862 30
410 798
569 271
716 618
988 711
402 734
132 523
703 892
230 643
114 39
902 162
979 286
450 101
802 270
750 424
189 456
910 344
34 727
316 973
547 716
601 809
107 43
414 762
299 566
817 949
985 59
30 644
436 453
511 771
421 23
204 873
978 852
209 709
856 264
433 585
964 947
686 732
203 419
97 932
424 404
689 664
743 549
853 485
160 382
625 334
455 713
147 616
503 733
883 783
773 629
376 331
598 522
769 656
88 383
941 752
957 361
481 144
179 985
991 606
186 514
656 43
415 18
500 906
266 846
552 379
884 784
976 679
295 457
79 342
816 304
615 128
250 800
662 339
439 942
79 455
10 218
729 950
859 867
751 305
741 331
335 542
930 10
110 282
42 730
152 438
741 476
587 810
595 635
462 518
915 128
403 84
523 327
428 513
855 170
678 673
844 185
838 923
899 549
935 163
886 951
498 972
857 179
910 423
87 610
659 101
346 680
274 445
497 268
541 153
890 301
598 106
925 762
394 866
934 104
957 201
995 106
248 741
669 757
967 496
532 563
771 285
536 694
667 476
980 447
83 661
304 742
395 561
586 260
861 926
348 759
109 296
645 397
763 484
602 554
658 776
734 39
862 504
121 36
487 109
236 691
273 447
628 605
790 228
314 677
353 905
444 288
358 154
760 316
462 132
563 859
175 545
568 835
219 913
384 330
719 36
431 567
944 274
192 471
746 898
528 81
36 328
408 933
319 507
139 65
452 152
399 435
785 698
188 567
889 619
285 296
715 404
215 171
271 757
205 478
299 148
11 280
983 166
953 375
807 372
439 592
484 111
859 109
561 987
46 861
307 607
90 85
532 44
661 384
631 438
133 39
122 610
138 975
982 196
640 389
569 33
790 907
229 499
347 866
143 527
624 575
180 245
575 428
902 916
602 458
880 280
471 935
197 597
477 678
848 838
167 430
227 387
673 301
571 998
933 243
806 67
493 700
494 751
61 24
613 603
528 979
607 926
355 360
990 911
789 963
800 263
175 129
72 702
951 608
312 422
829 132
961 820
836 672
840 675
359 501
36 936
928 731
793 840
875 91
452 824
753 571
495 634
900 576
775 596
899 241
482 627
176 682
272 221
141 501
710 232
608 796
510 172
12 715
334 478
561 426
50 945
736 176
111 808
133 566
480 382
620 197
779 460
436 537
242 792
634 962
104 713
603 305
346 266
112 984
24 10
668 883
289 954
767 755
290 469
823 701
458 851
609 753
42 658
150 841
319 66
217 648
788 59
280 338
114 78
121 952
825 58
38 825
994 579
189 419
707 442
567 534
623 246
113 73
310 685
833 368
427 387
543 977
164 758
405 602
705 830
714 548
900 81
879 847
852 938
579 914
84 284
957 322
763 334
809 42
597 971
100 661
212 47
758 630
515 856
787 728
58 917
863 699
126 508
878 847
239 711
24 908
405 273
443 962
45 778
603 800
641 515
809 341
6 639
822 765
36 162
534 161
187 54
244 13
687 397
325 332
166 948
558 410
210 252
871 241
125 399
641 350
770 378
632 29
232 491
346 383
879 331
48 656
632 251
480 632
769 476
99 635
315 918
360 468
851 712
708 199
858 244
940 623
846 845
212 937
817 788
342 60
234 733
697 35
327 296
293 744
935 41
544 698
590 449
812 587
665 901
247 230
817 859
216 330
753 165
934 498
352 794
496 89
259 327
649 243
196 810
674 646
913 198
53 635
790 524
912 506
496 514
986 519
383 85
165 994
723 968
834 499
193 505
645 569
727 897
286 729
25 337
335 802
254 444
625 568
438 807
866 802
513 361
50 791
514 134
336 616
779 310
242 484
943 523
144 367
384 286
600 616
852 220
146 888
897 976
239 159
620 682
869 133
64 980
289 839
414 136
966 981
272 737
416 841
498 9
25 943
272 880
387 799
445 639
561 958
247 448
270 378
952 269
592 788
925 38
455 219
203 770
318 209
808 731
200 752
683 141
17 979
152 627
636 171
143 720
536 921
852 627
818 575
947 929
507 982
571 989
878 715
406 694
339 657
639 483
135 672
740 703
853 504
909 438
967 384
883 893
365 558
296 75
204 575
553 101
61 326
612 38
383 431
258 10
956 213
562 124
486 940
453 189
664 660
718 587
274 800
258 445
376 70
948 885
253 768
788 637
223 952
666 81
244 69
135 246
618 182
965 163
972 674
258 735
387 993
873 284
121 615
585 400
306 755
372 336
394 30
327 940
954 54
450 281
648 708
719 667
116 972
66 297
401 596
275 463
332 164
629 650
660 986
935 96
542 386
29 245
307 975
878 26
40 690
510 958
294 251
802 410
674 893
969 891
406 624
874 428
815 412
179 438
153 853
293 386
423 515
85 32
527 185
895 979
663 49
517 499
653 755
344 21
571 854
563 762
518 999
615 545
986 148
210 827
526 498
503 535
364 319
14 554
223 291
852 228
643 255
698 718
914 387
678 360
572 235
207 128
49 290
664 497
173 160
718 564
611 932
500 45
436 51
88 606
23 899
139 142
712 732
620 957
948 964
254 71
291 475
202 738
633 190
997 677
210 25
102 11
340 628
34 299
471 194
220 450
754 774
334 78
239 215
615 344
755 109
93 622
612 546
124 388
234 452
396 891
219 440
38 604
954 957
459 489
918 720
924 533
263 485
753 461
55 583
829 912
30 720
157 19
30 259
640 499
509 544
752 698
726 226
318 30
985 259
631 266
467 689
433 833
985 428
968 702
952 35
682 116
121 462
5 414
98 222
30 991
877 168
976 353
464 939
999 917
490 679
930 840
678 170
662 559
455 743
408 846
406 489
361 914
468 146
306 21
877 458
222 129
45 760
377 216
628 615
844 612
132 533
116 307
10 736
878 831
165 688
187 472
904 544
300 857
54 872
690 416
33 931
815 370
732 235
783 921
611 702
150 302
483 863
564 988
582 365
175 841
641 349
989 357
737 244
685 108
652 763
428 219
512 686
731 863
641 462
915 539
882 410
628 74
730 742
656 653
713 460
607 1000
778 176
68 784
950 402
835 78
998 430
555 191
480 839
134 318
63 108
983 335
109 478
899 698
86 54
397 697
949 508
19 123
302 526
916 953
35 945
165 318
972 130
351 71
660 266
139 991
30 936
145 194
181 516
823 794
369 812
832 388
904 49
902 748
185 616
678 71
847 562
417 245
39 571
761 403
120 517
715 42
229 777
522 279
734 474
222 210
579 687
799 614
899 20
684 806
577 13
72 582
163 273
480 595
685 396
443 993
852 387
727 881
434 804
111 540
187 484
499 310
305 81
503 914
625 648
115 838
477 371
135 141
27 524
641 872
799 186
177 415
486 227
277 76
353 702
301 822
999 291
747 266
767 967
681 936
979 719
961 804
200 166
7 245
880 159
820 632
697 959
272 738
916 75
129 879
390 965
907 312
197 680
826 184
366 113
104 656
156 503
17 927
733 663
534 1000
901 443
740 149
355 881
538 294
532 249
938 176
687 607
289 316
53 267
222 370
705 884
674 897
834 16
318 161
345 69
976 289
725 490
431 115
436 475
610 954
421 9
459 842
832 480
584 821
804 590
37 121
207 393
981 178
308 725
107 237
161 949
326 9
518 907
689 523
464 770
835 789
451 744
886 480
836 733
283 759
875 113
417 825
328 460
183 854
866 852
979 175
562 125
304 341
12 30
343 556
552 59
996 874
813 332
562 204
824 987
515 222
366 614
936 809
558 96
483 774
979 909
102 108
267 57
31 32
179 725
295 740
917 463
629 853
685 35
872 566
814 825
671 80
305 351
55 303
730 559
638 108
909 684
517 651
292 690
21 476
759 936
353 541
786 668
470 861
471 396
110 308
536 395
350 743
557 875
287 526
313 384
557 412
959 24
466 671
158 377
416 136
950 757
39 46
646 210
8 322
997 294
764 23
251 76
307 891
146 432
705 679
952 4
104 314
857 284
847 889
105 656
591 912
605 680
217 159
878 740
806 65
153 15
39 626
577 143
687 966
264 360
748 176
882 554
98 29
818 770
764 505
178 165
315 469
752 2
645 495
204 657
667 43
596 371
541 526
572 865
841 332
73 218
770 848
737 803
973 931
539 421
120 795
687 149
250 418
888 917
417 709
1 390
488 750
576 559
275 848
689 866
762 424
525 508
214 839
304 751
733 121
150 259
196 453
343 278
271 565
20 875
917 483
792 577
263 177
871 860
163 869
78 80
888 220
764 631
747 611
551 563
202 852
974 36
11 262
413 102
752 934
26 598
792 17
629 764
190 360
317 85
447 155
142 719
860 416
163 720
52 825
406 832
777 812
660 342
834 775
392 270
781 780
152 192
802 489
470 91
290 693
422 478
718 891
342 129
413 958
627 757
609 834
939 209
43 804
492 165
75 407
203 90
630 583
815 435
108 341
137 220
536 978
956 747
314 179
762 822
881 172
801 611
911 738
625 167
113 395
350 456
355 466
72 732
108 138
255 117
314 633
282 219
391 399
896 851
771 117
277 484
776 413
939 656
221 71
525 399
306 455
571 305
277 198
957 548
283 989
883 368
258 277
261 722
524 216
486 343
768 682
73 306
138 244
855 351
585 431
452 210
882 411
457 393
370 327
546 322
86 651
984 779
141 842
690 204
4 569
205 232
25 578
47 645
690 884
12 840
199 462
881 946
259 909
150 986
281 665
911 157
327 298
365 115
250 51
615 751
617 282
604 560
789 610
464 731
85 133
363 495
166 78
39 724
378 694
397 410
716 184
221 630
902 749
248 716
855 711
456 953
972 353
683 990
867 141
709 594
51 88
677 180
269 593
776 347
250 248
201 980
399 123
795 454
107 46
574 687
163 456
581 330
934 670
774 707
386 128
94 586
580 630
547 327
50 789
876 393
394 149
332 75
174 338
219 807
771 924
646 536
713 141
586 901
707 401
456 162
269 884
422 971
258 616
617 809
335 618
376 889
765 225
716 939
807 508
494 969
59 892
243 203
183 47
483 20
301 5
449 713
945 716
440 500
132 490
371 732
156 496
86 881
569 409
89 626
574 650
686 788
13 682
858 121
471 559
858 815
19 150
938 177
812 666
63 272
86 83
198 594
398 79
570 932
40 615
222 371
212 640
730 174
493 836
518 735
242 452
248 889
155 455
658 358
817 982
839 401
71 43
364 55
881 155
773 803
562 566
874 868
835 758
382 446
400 381
532 574
40 788
496 470
648 467
264 476
601 85
583 29
556 439
752 231
680 836
697 618
701 50
100 687
374 282
411 268
963 626
554 948
580 692
909 150
16 459
733 370
952 647
202 490
738 168
50 166
970 791
849 750
373 500
671 829
547 355
841 2
612 859
519 761
491 328
685 677
266 865
33 618
470 513
343 269
163 251
326 613
55 441
525 697
396 627
936 584
646 663
205 509
667 680
120 299
267 230
196 128
15 588
261 622
426 397
262 479
600 868
51 792
507 362
950 424
935 316
186 269
59 521
328 758
52 201
777 823
651 858
157 13
910 757
696 833
642 699
402 948
8 323
206 618
29 243
692 309
87 317
454 608
939 244
70 528
308 429
701 402
612 211
523 578
943 341
191 464
268 627
852 476
14 123
416 966
855 196
669 805
549 863
558 743
60 207
812 819
942 646
967 465
572 391
352 546
406 451
796 223
13 227
889 719
610 161
739 287
117 415
162 942
805 232
24 947
978 716
699 807
173 366
653 36
176 685
304 370
233 428
434 749
537 356
168 257
279 503
616 927
727 681
90 734
162 739
461 789
210 23
546 605
853 847
340 630
343 273
387 991
998 215
436 740
625 945
58 18
431 978
284 976
124 279
608 236
990 716
372 549
954 859
905 632
994 796
508 37
518 200
902 43
728 53
483 481
467 996
423 157
358 946
916 354
534 913
441 838
906 280
691 546
473 469
674 106
207 780
482 285
778 734
963 726
657 551
549 529
507 178
679 146
772 496
759 96
299 718
504 684
514 859
36 523
330 808
41 411
481 716
358 996
944 637
563 314
670 610
987 858
285 512
734 305
203 443
668 71
389 610
212 253
408 848
796 803
748 630
696 503
532 869
466 458
938 604
361 545
93 234
700 438
706 579
176 762
179 961
328 261
439 38
654 334
425 577
598 716
512 787
378 611
417 593
679 76
819 345
24 685
277 197
482 645
289 543
166 939
870 95
732 148
242 680
722 94
730 629
756 385
833 868
96 834
816 118
10 181
732 442
203 684
461 236
872 20
282 309
389 480
925 174
393 238
301 660
270 413
643 901
539 852
556 910
764 233
527 319
210 500
643 786
311 928
494 366
445 826
213 462
75 508
441 723
5 434
812 582
925 353
708 631
583 645
94 338
702 109
425 199
136 14
88 775
161 589
843 937
610 916
174 693
378 80
730 493
633 32
934 211
921 720
80 554
299 968
433 478
113 438
810 468
584 582
835 827
657 79
611 768
425 643
410 105
835 968
14 623
473 655
112 377
59 322
187 393
723 811
432 368
529 166
847 795
75 732
150 238
334 379
617 637
888 492
231 977
969 56
537 348
777 449
3 408
44 308
90 662
70 480
642 225
237 704
337 343
46 649
132 806
439 938
650 679
188 746
465 43
998 159
381 247
402 540
121 520
507 321
159 456
292 751
872 265
883 217
621 626
534 639
367 794
793 193
473 371
932 814
441 781
812 260
650 251
764 13
587 524
809 538
368 710
114 470
126 925
949 478
147 972
155 297
542 327
570 532
598 110
98 111
937 152
424 485
23 327
941 383
88 914
807 583
757 936
744 573
877 511
679 521
847 731
389 263
446 948
213 919
880 188
723 854
689 922
908 252
393 388
550 649
790 248
538 498
638 470
361 650
987 714
163 412
550 536
136 836
54 854
223 933
63 524
135 243
266 878
469 945
456 112
538 914
353 728
211 742
766 84
15 990
396 620
366 838
257 402
849 280
225 518
903 127
414 88
287 746
475 90
756 505
154 701
725 616
747 534
15 764
492 767
402 659
370 31
802 80
217 688
567 336
657 323
422 289
307 931
750 501
353 802
665 585
423 841
271 629
216 487
252 509
535 840
475 518
759 494
574 445
138 602
213 390
632 420
790 894
479 71
982 442
431 416
962 365
644 215
943 872
928 98
273 83
830 841
635 499
400 346
936 316
390 837
942 758
656 191
43 87
71 300
865 507
79 801
175 370
892 736
605 505
808 133
59 285
408 531
801 784
698 700
413 655
819 692
605 155
349 477
244 53
456 29
847 243
923 459
951 81
719 949
298 627
171 643
140 316
233 94
250 868
253 3
20 996
2 699
702 728
816 458
850 983
340 853
219 12
591 284
333 60
580 3
194 962
360 486
566 42
388 934
850 761
581 615
621 570
40 291
569 359
795 741
591 856
345 368
831 112
264 65
185 379
768 298
735 468
590 489
886 576
703 138
762 594
119 83
229 575
268 897
109 25
381 852
375 378
655 420
269 297
806 16
667 378
689 879
106 688
394 806
680 767
734 310
143 968
939 526
958 318
692 846
767 892
862 154
166 413
288 982
265 342
616 544
876 114
553 17
661 693
309 768
199 620
757 130
631 617
130 4
490 102
788 577
997 629
893 676
692 29
650 561
45 185
817 32
2 786
230 255
909 528
872 624
10 291
54 56
349 628
904 637
820 615
987 254
664 139
314 268
690 995
91 82
43 215
725 927
525 819
198 881
592 812
672 65
523 350
247 476
234 729
610 704
735 3
212 548
159 811
308 503
557 644
961 283
483 54
113 250
847 819
448 353
506 27
754 325
701 330
630 464
478 93
961 37
728 344
946 435
984 194
929 583
236 23
459 245
867 143
145 481
573 784
606 244
162 827
568 735
805 222
828 145
683 766
813 579
836 740
852 887
624 150
535 26
966 972
795 329
541 869
413 710
272 138
112 457
349 404
9 496
241 4
597 702
893 727
159 119
343 762
658 594
101 90
282 334
637 722
379 718
796 956
955 109
974 187
912 281
903 133
617 670
944 506
837 385
569 995
769 225
223 870
388 713
636 592
436 733
565 822
438 359
920 226
519 458
360 431
911 428
716 564
45 464
803 764
217 708
842 941
147 241
611 818
242 145
886 750
958 811
851 857
285 131
802 303
363 687
185 279
114 13
790 851
743 785
834 111
707 263
933 841
716 79
886 827
688 744
785 145
605 833
494 724
499 810
977 654
105 987
752 138
353 305
373 958
162 793
179 237
112 184
97 820
117 441
335 502
652 404
782 819
839 838
421 761
101 661
176 564
487 104
799 357
305 993
948 893
128 550
847 105
112 421
779 761
834 933
441 402
538 96
615 82
84 814
581 78
379 746
988 64
150 469
648 924
516 846
149 163
243 56
499 162
979 748
641 11
442 548
43 369
261 458
572 971
137 756
944 196
793 481
741 507
85 519
52 368
440 823
648 599
451 431
899 704
850 677
355 769
1000 202
708 795
500 94
604 980
255 824
368 660
646 209
246 597
137 39
835 152
484 842
164 840
483 50
513 573
421 935
467 518
104 332
431 419
553 868
754 223
919 462
920 600
142 221
822 376
619 521
239 968
477 835
44 810
778 892
383 105
918 364
520 139
689 564
102 451
818 470
735 853
222 824
451 259
27 826
926 954
874 395
197 102
163 298
793 871
813 284
46 117
619 85
527 750
804 33
496 944
619 482
875 892
215 503
254 75
941 9
453 447
654 425
150 497
297 835
174 507
300 41
48 38
506 878
984 818
750 709
896 212
73 629
935 333
560 65
872 307
465 131
87 12
823 696
368 978
424 836
96 417
149 65
464 69
321 460
199 487
327 690
751 623
167 5
8 658
892 12
434 229
695 531
608 443
566 666
898 819
385 748
544 659
526 999
602 137
788 286
697 123
227 196
215 173
234 900
772 498
722 881
647 790
351 252
896 984
730 279
970 262
240 55
905 752
338 604
105 915
605 570
623 689
559 226
615 577
620 473
230 688
156 563
675 517
69 254
89 720
178 187
525 59
396 497
628 658
116 430
792 882
672 576
231 943
88 391
481 439
58 355
554 684
975 28
482 643
504 439
124 992
505 610
974 687
768 924
435 779
537 503
132 957
50 590
949 610
551 754
385 147
595 124
615 235
637 303
584 133
451 142
508 357
234 559
697 125
280 102
765 75
694 73
609 679
801 671
104 953
232 142
360 451
487 858
763 403
137 413
873 139
324 565
575 188
578 752
464 994
901 262
248 898
594 280
873 933
301 651
488 325
248 29
517 132
129 707
593 294
96 794
446 511
601 819
998 799
519 111
380 450
364 959
570 638
746 875
277 465
649 101
461 596
543 833
365 291
692 551
951 796
156 962
765 834
252 635
383 195
421 482
874 670
31 615
13 216
990 72
5 628
64 208
544 234
19 823
714 182
731 892
311 260
421 708
761 241
500 323
447 836
528 318
145 258
790 210
174 119
88 500
605 337
496 617
62 808
270 993
267 337
440 854
701 751
499 427
782 592
102 68
165 599
486 231
36 338
603 606
819 909
659 864
291 356
20 814
992 471
21 83
498 288
985 786
796 607
384 49
298 731
82 306
659 574
452 320
499 280
850 815
318 361
88 412
708 145
251 838
108 837
346 126
20 243
411 566
506 632
858 213
380 145
759 178
328 556
902 128
996 123
37 621
207 849
498 887
687 603
104 194
180 31
503 177
421 211
938 79
920 718
924 238
906 417
123 479
330 799
518 307
744 769
509 170
599 413
160 434
783 202
87 745
97 617
539 382
995 912
407 272
31 714
982 382
224 38
187 600
151 253
154 259
725 200
709 563
291 494
974 681
4 257
230 745
291 887
999 689
999 191
526 309
415 478
753 529
809 263
858 928
468 436
587 920
520 605
390 667
12 233
682 112
107 301
720 848
780 230
733 130
456 114
755 886
457 927
793 85
850 94
244 497
548 233
127 516
314 227
335 587
564 775
766 165
422 581
39 607
171 327
669 476
262 18
824 539
261 603
303 127
646 948
594 381
746 320
177 635
309 78
55 638
811 132
828 619
885 827
281 677
387 237
674 148
858 169
675 891
551 254
54 434
177 324
713 309
868 66
227 1
872 5
247 391
319 778
692 304
366 371
613 786
393 285
88 675
766 861
330 672
920 554
226 881
653 524
400 446
836 11
263 977
456 869
292 342
682 447
747 592
403 562
759 191
815 249
505 152
749 389
16 885
808 361
538 688
120 577
155 194
605 582
252 786
975 613
644 902
277 603
403 784
804 332
835 650
525 22
193 597
254 366
481 210
121 187
529 876
213 651
165 616
248 50
489 200
187 145
427 654
710 847
569 937
219 864
93 839
884 118
578 809
975 345
980 577
582 405
418 54
185 801
115 32
707 868
428 131
754 810
185 146
239 67
133 722
225 657
428 274
786 764
803 294
42 668
780 718
234 592
218 125
208 59
268 861
547 698
553 953
509 571
76 194
593 424
800 782
531 910
993 385
551 115
220 801
740 56
722 735
338 936
172 700
708 542
107 764
360 932
513 536
381 850
865 857
539 536
465 552
365 645
485 788
716 144
900 95
170 316
373 851
890 367
752 324
554 198
277 669
9 715
446 528
965 512
198 241
493 555
822 204
995 825
465 870
387 322
737 722
331 417
840 709
324 596
846 908
888 721
470 980
482 958
805 797
639 172
36 89
275 771
594 991
558 194
351 704
657 352
948 822
36 168
58 352
598 818
415 180
92 71
475 329
810 962
704 321
564 985
180 930
200 32
220 419
955 176
439 835
759 846
558 271
580 323
998 246
197 925
203 720
297 975
543 494
802 180
745 38
656 529
641 227
860 273
366 684
114 207
812 396
726 462
319 108
600 974
699 721
472 557
159 759
842 951
612 22
651 871
764 228
551 134
826 387
744 8
40 269
759 464
209 540
119 49
180 171
316 955
777 447
485 76
428 969
530 161
326 260
734 641
221 626
421 16
169 207
672 50
490 629
848 915
614 890
640 911
109 942
112 158
496 317
313 857
305 793
162 866
571 514
681 70
683 752
631 734
926 864
672 655
235 233
509 394
516 272
956 207
641 609
552 68
383 262
940 731
941 174
607 745
875 950
896 593
325 409
145 547
384 357
853 152
173 204
114 728
300 201
414 321
72 184
223 979
828 727
449 818
466 880
547 169
186 112
253 82
918 960
975 273
780 801
988 924
802 813
522 604
617 958
346 204
58 184
612 743
828 932
823 897
214 335
829 866
764 153
211 769
565 856
181 943
453 970
807 175
81 267
693 4
90 491
185 277
313 328
481 958
817 744
765 658
416 79
74 551
365 228
374 89
262 514
537 587
194 460
753 123
84 483
911 768
445 492
554 15
596 390
564 695
729 99
857 86
30 792
627 177
203 324
791 863
919 138
541 436
800 242
819 14
412 712
17 248
143 584
906 943
602 565
72 536
731 859
735 290
787 605
809 245
519 838
496 680
443 915
649 604
585 862
490 289
853 597
130 202
573 342
27 638
180 836
932 427
900 905
941 35
618 176
637 756
598 890
106 108
34 257
846 416
32 942
758 751
375 521
858 485
567 399
916 133
366 820
681 792
901 599
268 407
686 491
708 103
72 257
599 911
573 808
971 620
898 698
722 470
461 258
407 962
214 994
859 147
219 368
203 855
649 369
371 557
319 821
780 759
420 732
260 421
152 550
263 818
879 391
215 597
569 380
165 352
792 502
969 974
951 810
187 921
683 892
441 633
540 899
722 794
815 267
887 571
217 226
294 814
922 591
856 455
875 421
985 229
130 362
386 768
350 465
98 22
434 923
433 283
822 863
198 37
991 360
996 884
282 192
283 313
381 636
433 372
676 304
165 821
187 325
387 263
740 959
746 700
72 899
568 520
491 843
93 51
956 247
595 305
903 408
27 685
233 400
416 474
680 209
261 872
903 297
376 104
563 700
509 148
683 21
325 484
594 794
962 790
710 844
550 997
789 179
840 393
409 831
728 539
381 203
788 381
315 677
543 501
376 949
680 699
162 48
717 258
228 753
336 483
745 73
413 97
548 492
459 495
573 943
578 635
25 617
153 118
367 863
995 414
639 983
214 230
307 896
548 706
953 118
403 405
43 906
81 339
194 18
360 790
109 389
574 977
136 135
617 434
618 925
324 768
454 979
497 380
265 285
544 371
925 266
506 2
551 460
326 281
623 477
255 723
682 1
496 52
574 51
709 1000
247 825
50 343
433 549
269 183
531 220
829 479
443 652
352 210
710 450
491 120
329 357
754 574
845 564
117 462
634 216
155 161
50 441
737 721
168 52
846 669
305 845
343 909
629 468
140 25
533 542
291 159
775 260
154 141
562 62
909 811
514 189
858 641
720 717
528 1
92 64
516 738
385 96
10 351
357 868
983 912
289 652
237 718
989 383
812 216
885 446
104 669
584 135
747 437
822 385
244 756
902 489
940 52
447 452
950 800
510 572
846 186
285 410
444 846
641 226
698 616
20 217
4 550
578 607
561 907
980 939
711 665
622 268
787 313
132 386
348 309
587 612
414 960
881 263
274 175
845 420
846 967
960 946
961 367
872 94
413 280
454 940
535 909
989 965
692 408
255 720
661 675
611 328
4 122
715 22
579 998
672 196
484 610
105 851
624 717
456 815
754 320
31 720
536 643
312 578
153 578
970 354
176 131
532 662
692 801
683 610
819 859
601 493
606 126
401 738
339 73
866 144
639 242
680 907
53 919
224 263
386 234
898 598
288 776
145 657
40 377
63 647
674 468
610 310
791 367
150 349
815 947
500 914
849 937
253 230
974 753
6 892
938 650
500 769
928 978
603 592
567 53
823 943
201 484
275 621
7 98
102 932
147 423
352 676
959 268
543 461
472 748
417 189
976 844
560 11
764 811
730 887
470 186
114 240
354 579
996 150
692 783
467 928
569 412
398 310
627 402
316 508
60 785
781 847
323 469
967 932
734 945
570 830
792 364
298 29
407 429
1000 399
873 903
411 464
80 349
133 987
302 556
323 357
472 215
753 122
91 639
227 111
523 682
467 31
805 268
626 347
829 406
669 717
140 413
801 445
697 764
917 819
511 956
101 944
156 855
140 364
503 520
643 351
849 950
791 975
369 556
282 237
378 850
39 827
835 936
322 877
568 621
678 470
771 176
476 218
225 975
351 650
176 646
528 427
33 771
268 238
162 617
789 444
115 955
187 6
813 326
727 640
704 87
340 744
552 432
175 583
115 808
918 882
997 795
210 191
68 33
159 138
641 415
401 914
606 545
974 5
826 435
210 334
966 921
349 953
645 803
462 328
279 914
447 28
32 140
350 745
9 311
872 361
731 62
381 505
648 602
43 16
746 465
964 424
638 707
978 557
493 112
86 123
524 81
18 353
679 20
24 649
989 924
846 575
797 201
284 60
813 503
352 874
425 242
43 847
348 8
468 816
658 416
906 433
57 991
666 951
518 700
818 730
467 504
178 893
472 34
329 511
482 503
789 339
709 900
69 485
592 450
796 212
744 541
343 891
277 601
245 85
639 293
459 961
356 434
373 177
912 231
642 272
143 845
461 558
481 208
619 86
361 362
235 321
472 143
558 23
249 733
604 337
633 287
974 839
590 865
940 819
667 621
854 809
125 483
849 813
755 852
24 372
571 960
231 763
914 977
292 589
868 469
617 996
410 656
77 269
93 615
976 901
910 952
540 989
538 519
958 900
464 56
742 815
673 788
33 437
569 363
205 499
635 998
353 490
731 395
768 191
255 985
829 538
614 17
226 561
130 732
760 617
547 525
345 229
255 942
626 46
644 401
368 258
523 532
393 319
293 698
19 213
294 105
809 996
856 646
52 907
18 103
570 712
578 175
299 594
709 983
182 889
505 156
735 7
232 519
725 29
430 379
855 686
731 996
346 228
869 862
131 246
698 113
680 769
398 580
222 136
539 70
546 950
339 940
583 369
787 660
917 589
775 547
243 148
107 457
842 140
426 891
614 408
995 614
762 359
322 964
658 618
615 468
421 359
990 431
911 562
172 282
779 258
215 404
76 894
741 636
617 678
780 168
663 173
55 508
242 677
133 530
593 817
48 118
379 516
361 241
362 858
57 264
24 511
764 913
780 910
824 614
931 266
950 506
120 471
268 443
696 655
345 498
328 563
460 48
333 318
673 161
218 206
186 544
906 313
639 859
603 209
113 213
484 668
303 312
87 593
753 93
493 858
383 415
118 329
265 657
344 438
492 22
517 419
110 120
737 530
169 94
170 673
62 403
9 174
502 202
52 653
47 394
821 767
685 530
830 615
272 127
236 320
671 697
207 65
29 238
254 420
450 311
884 795
701 891
38 803
671 839
908 716
180 866
435 763
477 332
171 545
478 703
339 279
642 250
92 37
292 935
980 532
471 131
90 457
920 375
404 72
281 259
229 477
984 894
572 605
370 357
730 709
642 911
972 650
25 951
318 364
135 334
29 967
413 40
788 20
719 572
426 181
156 462
391 625
765 334
74 835
829 977
502 763
319 640
74 978
825 122
310 754
294 215
905 50
378 300
52 45
630 534
762 662
105 701
365 371
256 681
268 724
382 718
592 328
97 622
188 259
637 741
977 642
247 992
435 234
274 340
829 6
409 459
726 886
213 801
306 69
913 43
829 119
888 557
931 731
436 310
852 63
943 864
287 268
988 399
41 914
371 439
570 430
27 707
174 150
196 714
396 436
550 541
662 955
330 432
738 277
547 361
250 619
399 740
920 437
162 328
715 956
37 664
990 803
710 753
841 870
492 982
1 127
963 279
713 316
609 371
42 532
78 238
870 378
484 129
915 969
29 705
105 349
552 924
312 225
609 605
973 212
946 928
393 32
731 430
751 931
664 485
960 844
668 437
336 182
265 539
781 882
489 984
626 11
511 543
57 252
857 81
633 410
172 731
963 736
912 894
253 967
545 998
670 505
639 736
17 303
653 777
223 73
796 55
730 319
913 245
217 224
501 143
496 471
809 932
902 687
619 525
891 864
657 232
30 890
344 29
683 557
576 984
994 107
867 203
77 177
528 603
433 281
72 679
489 341
182 700
832 225
762 110
193 441
514 437
112 311
439 436
97 197
447 921
123 937
514 292
733 336
143 844
628 698
735 742
780 423
672 568
951 398
771 828
735 631
107 266
568 872
842 331
869 832
367 187
392 874
764 680
980 477
513 262
876 606
146 809
149 82
427 784
110 505
954 99
920 175
557 70
180 751
460 798
762 59
243 137
263 332
927 997
289 945
453 878
976 789
601 648
854 746
54 482
316 733
812 314
150 817
657 767
603 71
255 984
117 999
962 250
69 900
451 660
43 797
317 342
154 39
941 892
946 678
485 640
181 647
809 742
347 675
703 262
448 282
92 642
674 520
182 975
753 1
200 927
991 27
353 403
523 757
943 484
269 181
17 420
456 900
381 945
102 330
153 612
80 580
118 12
212 449
126 523
8 689
38 333
39 924
387 71
343 798
862 46
421 300
683 649
460 774
841 273
678 503
679 861
594 587
801 823
417 762
108 38
184 815
210 979
603 936
124 840
714 451
589 725
435 670
992 225
311 115
187 65
704 213
709 76
103 237
586 117
707 443
698 959
145 981
292 908
24 290
352 255
689 16
211 308
31 481
988 4
175 966
569 571
107 532
802 179
864 888
479 945
651 954
656 832
138 219
51 854
397 894
824 470
716 668
879 48
350 678
928 628
995 372
786 622
548 657
570 169
8 458
114 93
503 77
927 767
289 939
312 8
555 196
703 68
173 953
823 145
413 567
165 341
486 215
7 738
265 263
199 122
56 508
256 718
956 535
187 301
672 198
730 324
568 23
680 561
592 365
460 501
331 108
550 42
956 885
246 93
563 141
601 66
291 974
44 750
80 703
908 839
344 836
71 499
629 261
386 121
671 544
736 565
602 417
224 281
206 409
541 140
249 954
754 917
204 808
900 513
634 335
597 697
46 433
874 350
270 997
344 529
225 274
987 386
84 660
441 490
45 152
710 650
470 623
327 818
291 360
884 169
8 786
101 129
488 858
466 891
146 896
147 425
292 646
391 850
488 233
52 490
186 368
629 524
906 105
410 888
185 56
428 192
629 964
76 782
526 641
11 468
704 923
190 186
165 504
706 140
708 962
51 449
35 964
930 452
682 165
976 394
761 740
597 342
369 887
540 954
394 872
326 359
143 695
210 498
577 187
647 775
430 321
14 384
952 961
332 961
203 377
424 122
758 405
630 184
779 816
635 346
505 113
378 993
253 723
326 1
420 206
495 650
41 247
196 203
502 326
529 90
785 240
956 974
832 53
926 835
504 166
321 560
305 907
933 281
991 535
227 954
768 945
921 242
978 261
63 677
340 746
180 839
879 583
805 928
183 76
542 557
250 731
876 635
514 18
805 561
978 39
906 856
559 518
158 933
898 484
591 145
439 900
333 129
911 459
345 384
402 634
664 857
759 928
119 513
854 604
211 970
621 959
930 36
592 715
336 393
742 769
816 930
570 254
474 11
501 754
663 838
664 486
455 556
359 837
142 789
55 792
803 842
381 842
912 654
948 196
217 118
680 634
143 282
751 753
990 859
496 11
451 942
777 500
770 786
160 466
658 49
44 912
260 853
743 534
212 430
654 61
69 483
431 140
17 72
861 583
143 568
470 61
679 602
256 980
151 29
227 363
545 594
31 571
821 645
571 734
143 937
105 462
373 14
608 601
918 464
405 259
540 322
559 486
178 447
74 252
336 779
10 580
799 324
177 253
128 519
662 68
616 902
301 84
343 697
205 696
58 659
686 185
693 739
587 552
971 961
919 690
913 733
447 536
722 117
408 213
428 232
185 805
292 591
192 571
478 918
285 258
724 697
436 769
988 758
111 623
332 882
258 845
225 774
380 102
608 449
375 189
406 941
276 904
707 420
730 79
513 739
933 554
181 789
521 168
151 637
507 843
289 508
273 791
290 943
920 522
902 622
943 374
640 665
567 168
499 888
481 709
598 168
431 51
36 641
364 118
481 310
445 467
28 317
235 995
581 49
724 357
248 406
123 598
966 238
382 993
496 356
518 843
724 468
766 587
970 116
365 894
850 478
903 616
20 578
2 85
274 974
439 8
69 27
179 631
897 800
845 682
737 33
240 583
881 882
392 952
335 888
680 483
970 697
77 401
975 392
443 299
447 739
893 815
384 187
920 285
993 889
854 954
266 179
993 50
253 33
533 223
347 36
737 380
959 277
462 279
56 978
552 567
132 623
349 547
579 286
430 269
768 127
203 562
276 846
655 962
859 175
986 901
129 548
764 582
63 407
66 409
674 216
397 607
548 737
290 721
39 494
872 65
412 60
983 311
754 157
110 662
314 144
688 627
337 603
670 423
787 137
332 346
830 41
916 853
227 453
670 577
748 865
469 256
877 131
592 509
339 876
951 525
627 789
739 463
995 857
342 720
202 111
597 870
378 684
16 487
589 918
862 410
701 776
211 4
395 893
362 248
399 797
727 761
267 391
231 974
870 336
932 435
736 276
789 278
679 934
25 121
137 919
173 81
233 254
840 338
107 725
953 533
609 395
495 154
353 693
617 640
599 528
20 605
15 963
234 570
64 859
789 232
918 964
334 143
660 379
953 503
721 883
990 231
410 726
730 707
290 416
418 237
519 81
280 246
523 146
906 22
85 621
358 531
977 82
785 915
794 995
1000 212
753 396
913 941
309 230
277 419
920 821
831 33
881 288
75 361
310 752
373 580
45 711
910 259
314 722
181 845
223 198
303 222
626 455
104 485
52 845
182 948
716 212
735 200
761 453
133 396
819 229
325 916
731 945
454 56
383 226
995 996
444 102
743 578
230 531
231 302
876 33
913 41
41 246
45 678
850 438
657 44
896 868
52 530
486 913
421 739
294 988
232 962
932 241
571 403
183 937
311 148
928 685
182 355
112 491
79 25
586 207
228 405
680 136
385 60
150 380
306 534
415 136
1 204
534 470
196 289
884 31
25 198
871 819
823 908
970 576
434 746
647 226
797 529
409 720
690 579
253 489
56 893
348 451
360 778
388 570
120 418
102 726
750 674
107 876
845 287
347 157
24 168
346 95
789 863
848 501
918 701
134 364
235 263
928 300
322 119
164 886
424 539
9 103
86 119
592 8
330 355
481 591
887 67
29 493
216 268
53 487
22 606
333 951
763 206
660 544
994 502
830 880
8 518
485 729
283 396
784 759
359 409
400 224
269 626
425 691
326 253
737 826
240 894
887 564
368 473
268 62
197 96
568 524
365 810
370 660
166 677
225 127
524 975
196 296
13 334
434 741
399 853
111 607
921 205
261 852
278 850
409 993
627 519
653 315
840 283
324 244
822 671
73 396
37 553
976 715
115 177
334 807
231 871
237 742
845 999
367 423
3 614
387 967
101 375
54 87
220 331
149 193
794 662
656 667
508 206
73 639
134 46
337 946
135 259
410 782
431 920
12 718
215 49
586 679
38 219
955 486
993 687
522 143
25 621
264 659
428 414
945 524
198 780
128 354
111 241
243 984
336 5
622 133
397 570
109 496
385 289
362 839
356 729
123 188
251 99
803 920
199 259
459 94
436 326
977 558
887 39
448 284
29 497
696 50
863 768
465 824
865 609
544 486
799 854
475 279
752 377
406 372
852 812
729 95
839 230
58 809
829 76
524 628
631 832
45 605
530 72
748 28
752 39
210 492
572 274
165 836
598 506
302 39
292 89
719 338
757 139
677 972
965 958
345 627
130 31
625 666
257 128
974 823
611 603
262 403
531 577
909 952
785 618
385 100
363 83
171 599
449 809
244 905
824 779
298 606
500 856
200 180
918 936
580 925
498 76
551 974
148 35
632 262
579 257
699 280
696 547
968 776
237 893
717 435
76 317
313 85
385 544
834 753
800 577
983 464
416 346
565 866
578 714
459 420
454 529
450 1000
214 113
829 44
697 768
858 249
942 885
561 762
921 436
523 642
235 672
108 434
711 110
952 807
476 573
245 232
264 297
605 536
456 561
678 204
311 493
405 668
957 411
705 162
486 861
754 689
629 259
991 684
758 169
6 684
785 155
128 674
588 552
818 37
231 120
253 896
895 465
975 73
391 136
25 280
34 391
414 805
75 334
41 597
116 63
687 426
870 832
935 604
756 207
357 915
874 126
983 944
718 135
957 801
639 13
907 84
964 3
789 545
253 452
902 457
725 858
337 105
232 321
217 563
932 624
868 886
565 294
698 405
592 880
494 48
208 105
885 801
454 738
39 60
665 629
207 942
8 336
996 97
82 993
13 673
53 224
436 24
130 863
437 321
468 681
450 972
89 180
623 307
865 811
312 917
723 657
800 954
13 899
548 996
311 674
497 312
869 544
833 87
526 114
87 852
736 774
883 985
735 88
131 230
596 498
870 753
71 320
149 534
442 512
313 888
245 125
762 73
945 415
47 427
658 892
884 676
478 493
724 13
926 833
50 204
415 452
861 180
723 498
757 67
153 237
226 397
120 888
179 407
892 954
475 406
851 115
215 488
749 880
236 581
275 943
354 150
353 871
300 170
708 319
871 221
323 859
604 504
572 798
556 379
386 415
23 598
101 338
637 352
405 207
950 135
54 72
298 534
741 258
907 112
67 495
747 625
510 489
629 637
280 164
923 970
985 993
234 471
989 581
885 660
815 877
589 176
536 4
935 388
739 543
556 959
918 690
940 286
155 638
297 110
654 73
328 590
368 651
539 788
167 239
703 9
299 319
816 739
327 485
939 239
192 616
821 207
968 653
471 970
554 458
276 724
652 883
924 200
484 599
952 129
701 282
852 922
599 447
51 106
424 88
558 607
245 160
857 806
640 844
364 306
666 708
192 67
874 611
814 546
611 150
130 393
135 920
321 530
479 580
785 355
404 975
330 84
671 651
547 441
987 558
434 738
538 220
166 821
751 205
211 428
983 538
957 409
306 424
70 401
698 934
202 745
24 713
638 779
996 647
922 302
221 966
563 560
56 730
59 977
336 698
888 119
46 713
858 595
590 906
936 557
594 57
480 761
301 304
935 330
816 978
176 369
163 589
898 744
292 488
81 436
872 329
105 318
967 908
661 327
994 996
949 124
879 105
642 660
826 359
446 478
711 470
7 921
949 493
971 365
535 868
147 927
773 63
21 954
544 281
419 445
57 910
60 571
563 404
785 153
550 178
720 56
710 436
571 798
588 976
184 502
575 682
625 349
718 978
535 296
885 268
815 8
206 413
526 469
412 525
400 205
848 715
44 660
245 53
676 337
109 742
496 757
334 757
64 489
338 264
728 896
547 452
340 334
382 193
93 18
285 136
850 560
250 575
328 157
241 940
827 165
946 819
280 800
281 9
819 521
287 999
499 69
390 500
283 836
141 670
185 982
210 131
394 74
860 201
813 348
809 633
794 747
357 65
965 386
916 186
149 341
133 816
598 742
824 473
163 617
424 807
422 278
775 278
137 390
191 95
176 492
656 934
271 983
423 184
685 549
104 94
893 450
859 222
769 714
274 168
609 885
119 33
207 760
307 129
323 666
306 173
901 255
460 353
118 333
320 308
907 802
365 284
283 978
956 641
60 334
874 886
196 798
123 278
515 642
735 103
518 523
669 661
174 813
640 901
368 238
478 359
448 182
740 435
571 536
718 857
130 621
518 821
762 165
487 124
14 628
499 658
486 956
32 659
469 834
571 486
771 232
735 571
645 719
814 78
706 815
447 547
68 276
159 127
453 350
865 118
663 319
704 308
192 472
862 581
850 117
372 209
546 410
250 821
141 642
589 472
832 700
600 739
682 733
423 489
266 36
604 98
215 11
203 579
310 805
81 99
254 582
242 54
839 827
531 750
234 658
716 274
897 488
293 559
8 827
52 186
768 379
273 691
200 621
316 631
541 74
695 705
511 756
347 639
296 507
132 129
56 514
835 728
639 712
752 420
900 142
591 897
852 903
778 622
859 852
401 49
41 474
260 892
133 394
100 627
529 317
35 692
51 802
770 545
682 679
38 313
900 428
260 771
782 904
148 876
130 307
162 89
174 828
211 196
671 134
356 827
828 77
97 189
779 531
248 319
781 65
69 191
809 264
349 95
404 398
10 687
699 529
767 57
714 439
474 944
680 251
322 684
558 252
580 604
463 376
31 132
314 579
664 527
900 334
314 904
615 74
625 818
741 688
478 814
121 570
128 203
731 879
408 107
485 67
529 709
453 741
917 182
298 678
427 982
341 516
966 813
327 561
630 906
242 971
461 171
337 997
946 973
507 469
694 955
109 377
994 961
582 715
775 350
245 63
817 556
980 1000
53 82
533 344
337 647
670 195
950 303
639 910
11 437
270 205
132 214
100 162
449 126
287 318
623 342
683 229
599 457
658 413
805 346
6 407
259 378
213 239
281 692
878 755
176 724
758 325
995 949
118 36
688 795
377 494
808 52
285 196
459 752
249 164
75 631
204 511
629 329
596 134
637 878
763 415
601 296
982 639
931 763
514 433
218 792
810 548
581 359
212 254
550 674
364 465
992 874
535 90
353 928
740 820
606 853
534 196
762 447
304 251
582 226
505 590
986 57
21 178
225 351
7 387
874 36
163 129
354 960
426 565
772 668
906 891
292 586
461 109
997 907
233 982
958 574
104 837
52 429
894 364
110 223
916 22
958 905
742 800
726 421
466 743
512 107
147 192
151 664
722 436
100 96
782 490
765 370
587 638
782 405
975 483
342 156
289 256
381 762
845 267
829 646
920 670
541 50
997 464
467 701
434 398
396 303
843 822
623 278
918 139
646 471
243 886
628 966
946 565
213 18
715 240
196 410
298 496
834 222
250 9
472 3
189 122
986 564
681 194
119 855
227 648
174 897
785 44
398 585
644 865
296 15
739 293
596 154
739 228
909 67
527 564
362 368
775 542
266 634
984 299
568 554
956 145
662 103
365 925
336 633
962 965
905 966
162 285
932 489
236 910
55 74
865 254
715 888
241 653
115 148
423 375
885 440
408 52
7 20
543 70
841 802
918 942
647 36
444 801
229 53
875 527
785 795
334 187
849 232
635 699
68 772
54 339
972 754
177 933
820 910
103 770
470 3
697 189
646 6
705 602
171 162
882 590
484 955
445 423
74 955
844 139
795 585
550 49
9 44
678 774
422 64
151 898
298 178
192 593
969 831
949 369
611 334
973 587
540 850
4 247
905 324
320 164
361 856
604 231
108 451
291 613
878 683
97 950
335 372
676 400
2 355
420 214
277 555
776 326
120 640
852 177
504 799
248 610
486 851
605 391
218 801
348 656
406 112
508 878
596 281
828 25
277 269
25 348
922 978
904 633
541 892
844 787
685 273
334 321
672 612
693 774
470 641
456 463
476 18
172 507
448 627
968 362
269 635
879 668
145 949
58 510
168 781
229 375
926 121
547 174
878 987
970 555
58 97
684 493
333 153
888 176
524 326
327 959
458 272
355 526
926 449
565 655
381 382
879 483
587 67
556 70
6 35
603 485
881 763
453 802
29 911
618 682
877 655
309 227
848 411
156 378
322 110
587 518
514 159
147 105
419 972
994 540
995 301
479 196
228 324
911 107
41 319
539 552
812 540
772 503
9 985
119 301
808 599
899 928
454 172
995 920
482 61
544 32
84 345
431 244
252 919
239 959
41 106
869 863
333 468
585 613
527 846
325 802
491 70
917 942
165 905
919 240
596 355
709 716
156 732
314 695
205 989
520 871
938 538
75 613
602 410
193 754
305 24
412 788
879 978
684 540
23 882
733 413
653 134
301 108
943 589
177 38
441 409
210 38
266 788
752 757
162 325
687 273
55 434
846 427
713 342
20 970
738 739
794 689
867 989
801 918
85 812
983 199
57 331
755 924
148 118
556 155
997 999
67 126
195 53
16 672
868 788
744 282
708 253
431 630
915 829
418 383
391 238
190 203
372 746
358 909
988 524
406 599
241 145
151 740
894 930
532 161
204 182
789 574
958 95
228 376
895 736
640 258
790 884
332 270
248 817
869 753
564 97
456 798
204 848
589 692
449 159
360 622
805 298
177 412
655 25
761 486
479 367
541 480
105 958
179 163
87 890
36 760
308 581
293 151
829 37
466 188
409 426
493 871
527 930
896 980
883 804
867 770
149 552
187 749
494 987
482 803
545 711
175 260
657 13
976 668
680 624
888 701
351 583
448 878
854 150
801 814
606 808
153 207
690 478
166 147
520 609
225 237
943 609
713 16
162 758
512 542
849 592
296 592
797 976
444 568
532 561
965 138
569 945
510 297
385 142
375 629
215 236
146 949
680 389
228 841
104 823
355 253
538 670
63 153
208 453
367 353
143 641
876 904
626 327
440 456
385 473
993 684
996 197
964 379
731 16
551 773
975 869
815 752
620 268
460 153
206 589
851 792
621 338
949 491
61 763
796 370
234 909
455 39
187 845
408 81
14 34
967 136
890 855
847 982
545 784
792 759
830 787
675 814
490 680
622 657
307 495
520 193
28 424
726 691
912 283
903 727
705 372
211 255
598 505
913 903
642 351
346 206
157 834
49 377
123 517
931 871
434 821
225 672
519 532
810 680
260 649
712 662
620 775
268 172
201 151
280 802
244 19
542 734
887 827
888 425
12 169
749 822
515 258
220 4
998 31
569 973
495 294
155 134
439 859
39 854
103 462
196 188
91 398
984 494
937 930
383 942
543 455
659 336
258 954
43 176
370 46
803 714
879 63
789 803
591 619
498 102
379 233
548 670
151 703
621 677
750 443
626 253
184 88
369 108
298 32
468 656
929 898
963 377
826 634
845 302
617 407
502 34
268 558
431 98
911 820
933 812
351 219
852 988
305 567
71 200
465 809
652 539
246 86
601 69
729 184
748 236
94 10
387 422
500 293
725 172
657 745
540 279
947 349
800 460
842 91
1 425
171 889
500 251
49 357
909 247
936 171
870 788
102 226
679 818
35 167
614 265
11 958
396 748
913 542
951 98
187 209
595 204
279 673
548 254
534 441
388 691
603 710
253 449
290 77
920 236
868 738
524 470
185 314
931 300
589 312
863 937
935 268
685 869
318 278
727 174
712 221
613 987
72 893
205 128
29 114
103 801
142 659
454 737
290 670
128 301
976 97
483 179
711 523
540 657
771 895
636 74
713 983
916 668
591 815
9 984
448 296
263 855
782 274
368 479
365 193
938 967
133 359
86 329
311 556
499 820
251 507
895 946
188 392
681 555
305 684
785 90
930 901
400 248
681 25
496 337
994 48
904 824
701 568
728 92
605 490
900 716
170 929
652 285
780 298
763 610
40 461
386 201
861 673
23 796
376 245
279 374
942 50
728 890
802 705
585 215
107 407
466 42
603 919
180 844
822 695
490 164
39 657
387 606
766 496
125 472
733 153
275 545
900 768
690 748
944 397
182 48
510 413
827 461
811 576
719 843
797 749
889 628
626 577
608 220
310 148
59 660
133 741
405 896
64 782
319 206
195 52
458 814
435 92
614 913
825 958
739 512
480 941
599 116
508 353
618 542
820 246
860 759
973 304
557 689
318 255
397 756
500 736
369 955
777 110
892 400
908 704
229 657
639 750
804 945
667 363
264 134
195 942
469 453
199 974
97 908
320 237
174 760
753 890
507 625
420 152
378 955
459 754
562 673
986 705
92 560
4 494
120 697
675 531
13 104
804 373
316 88
993 404
746 676
884 810
426 910
27 677
676 30
41 513
760 359
427 616
121 307
983 535
254 113
45 487
989 226
573 483
200 331
106 72
219 891
510 302
239 372
149 92
300 24
600 558
71 907
862 914
251 571
592 541
628 235
827 611
519 4
947 240
885 708
157 195
713 595
181 205
110 221
334 991
95 523
993 675
342 432
509 577
316 731
208 52
601 515
692 366
22 228
375 41
765 737
716 427
534 796
670 332
792 474
209 696
85 101
929 711
916 571
316 446
425 96
523 747
841 294
758 395
536 590
903 816
753 388
902 653
890 231
448 62
140 348
109 961
430 178
238 60
117 470
412 520
201 811
239 871
102 364
403 823
637 880
139 621
178 461
804 361
272 10
787 669
791 125
371 452
61 384
603 163
871 435
874 469
620 241
35 317
58 646
899 452
974 904
57 862
850 362
26 88
702 674
802 521
766 302
152 133
105 393
704 299
627 297
300 222
399 730
989 198
348 242
132 935
224 960
941 99
379 684
519 330
38 887
923 873
651 745
879 344
714 424
22 454
615 370
211 536
430 762
592 761
789 945
561 818
907 266
111 450
677 944
825 901
689 385
212 590
298 783
940 338
742 962
1000 253
928 394
365 253
811 199
479 861
336 229
707 502
194 223
506 733
702 319
170 84
900 930
82 904
817 763
358 805
863 264
518 349
647 635
579 833
156 54
303 193
693 520
806 216
990 645
958 487
411 96
873 717
87 735
408 922
960 711
65 485
196 793
527 199
804 600
93 399
424 388
692 821
253 713
342 634
259 765
921 589
279 143
247 571
654 361
634 754
969 377
326 174
258 134
666 315
192 142
639 250
988 418
296 892
850 447
118 703
249 956
603 797
529 146
245 638
116 404
979 14
927 470
31 173
803 220
550 635
609 29
242 542
187 99
82 119
179 711
767 985
774 478
666 255
63 621
814 815
780 843
174 462
42 936
812 180
745 239
798 355
765 244
976 562
698 191
917 159
719 743
253 433
716 559
310 824
920 28
816 925
390 128
457 617
821 420
310 939
314 229
24 192
134 133
298 559
328 598
260 315
388 240
209 341
910 661
488 284
346 870
113 945
796 260
890 603
618 586
471 546
99 499
563 416
640 968
773 901
719 779
92 783
832 510
464 978
451 952
531 284
718 926
217 149
543 473
47 454
639 440
839 170
112 179
725 885
960 449
800 259
35 407
456 672
454 479
279 256
625 324
842 124
541 862
232 854
656 232
453 174
890 71
136 880
582 133
879 589
960 495
287 256
497 197
619 384
659 793
785 566
382 510
594 190
332 406
225 417
64 609
710 744
219 143
34 248
346 262
243 178
907 453
871 524
270 519
695 354
276 263
295 80
801 660
669 323
11 409
105 326
3 83
916 492
22 221
974 366
708 782
447 250
68 749
786 944
419 797
668 396
803 995
238 836
664 283
995 331
212 615
963 745
324 789
308 434
739 846
929 826
288 174
719 329
473 230
866 343
43 724
565 327
606 397
166 274
246 336
390 591
981 247
917 863
294 694
467 222
378 783
676 426
795 492
615 679
598 467
843 472
207 145
619 177
288 729
572 105
610 404
611 981
740 823
944 704
248 205
637 589
339 246
897 734
831 893
31 101
144 279
475 359
154 481
669 498
633 335
707 560
894 38
755 860
940 954
964 648
525 720
621 891
845 883
811 943
613 279
64 353
803 323
916 162
174 234
747 750
497 815
261 164
191 39
29 904
727 81
56 794
113 799
459 375
117 895
84 649
506 710
398 502
978 471
682 837
191 261
657 641
603 205
276 517
406 956
78 649
579 868
467 702
131 503
994 693
167 493
562 989
928 43
415 951
87 570
570 720
439 249
78 939
616 270
285 531
296 212
706 6
501 133
88 86
92 614
420 189
577 22
466 185
482 850
9 578
250 246
738 3
505 549
628 630
535 10
918 502
131 960
279 328
521 64
254 168
749 530
453 213
384 484
918 97
408 490
624 728
876 411
714 458
848 827
576 487
816 438
390 345
441 635
11 916
737 148
519 308
371 146
906 651
90 515
90 566
566 752
55 500
812 209
922 433
784 434
896 284
91 384
533 217
612 614
884 195
958 590
303 109
264 598
82 325
724 628
48 509
253 428
147 259
902 113
780 533
918 655
100 432
446 156
512 74
324 568
128 323
151 697
668 581
769 50
122 571
873 769
953 461
837 870
252 458
930 742
840 15
288 8
109 96
57 829
846 639
463 665
781 516
468 769
566 590
844 100
132 56
436 470
184 295
293 75
795 793
192 882
959 538
201 740
790 540
460 579
174 817
691 457
50 451
508 907
786 463
576 964
75 796
847 714
840 668
36 897
37 168
352 342
390 904
981 385
536 764
417 814
948 766
400 956
292 122
899 402
349 119
25 289
26 10
779 632
597 721
693 914
857 572
715 682
684 571
480 121
172 359
500 116
866 634
571 363
297 742
414 335
845 985
296 554
577 943
228 557
390 468
374 871
2 708
96 151
161 522
428 174
30 142
729 901
15 638
419 437
500 267
500 552
949 877
919 901
721 902
115 403
778 71
82 696
176 317
922 844
295 60
394 479
561 914
473 898
76 173
631 445
712 959
253 731
103 944
200 657
347 450
402 789
544 726
483 2
138 939
782 336
910 664
865 814
705 837
660 381
235 754
419 286
311 697
611 367
259 258
976 272
692 595
190 878
377 357
892 412
910 39
514 788
930 673
809 944
463 915
688 883
395 723
836 326
507 599
79 675
800 268
109 904
629 369
39 861
653 125
25 298
32 981
16 426
197 389
130 446
828 73
187 307
459 566
443 941
170 943
210 880
407 846
818 115
162 568
255 128
380 231
386 199
560 67
199 349
357 624
106 176
692 735
935 793
610 352
896 567
446 37
44 269
119 843
949 574
520 678
580 382
712 910
620 623
436 534
440 721
239 195
132 783
245 990
798 348
254 900
592 563
663 914
38 544
223 620
519 179
189 716
280 216
337 985
375 801
509 699
95 678
940 283
212 898
565 898
379 147
955 702
830 318
890 525
797 47
302 887
178 641
485 515
712 473
952 424
402 57
95 836
540 759
706 235
810 679
565 164
696 941
652 10
865 842
203 175
97 672
8 431
955 891
528 806
377 656
104 440
88 861
621 397
952 134
886 787
722 784
407 174
56 298
130 753
439 906
178 197
623 673
112 65
882 605
221 967
299 783
670 786
790 439
169 303
409 553
338 398
780 377
193 433
602 543
587 726
900 674
150 65
597 792
339 8
122 376
422 618
420 463
975 159
463 427
301 60
267 372
710 920
219 607
598 813
159 187
196 421
306 421
932 497
635 950
921 64
840 144
966 720
976 592
722 108
817 128
581 935
414 22
72 73
510 447
461 105
870 399
727 370
103 564
766 204
589 365
29 790
110 227
422 751
775 297
542 204
618 350
17 967
570 157
882 219
683 406
190 234
985 738
234 726
454 559
932 875
764 546
91 277
691 560
393 213
12 953
270 173
555 97
756 998
248 993
246 316
228 287
514 954
933 932
240 325
114 354
657 930
770 707
578 164
31 295
697 265
86 375
289 972
293 39
725 36
429 935
213 880
608 238
444 101
465 851
407 912
355 451
639 371
876 103
14 754
369 739
175 293
771 433
561 295
616 715
172 895
625 515
185 654
628 742
487 795
629 563
407 743
432 465
675 367
733 61
922 156
786 767
510 249
2 846
684 374
520 751
25 23
634 533
837 400
805 754
717 405
774 387
390 120
188 802
931 164
879 346
391 447
668 817
320 943
466 933
360 416
340 894
716 517
699 817
276 230
744 454
798 39
396 87
765 48
803 719
932 937
555 286
744 341
17 931
289 198
717 62
665 611
65 959
281 874
891 375
506 731
142 805
34 882
536 240
960 908
152 761
247 64
98 339
180 15
165 349
113 100
739 824
427 478
835 493
786 155
146 122
132 428
485 829
606 443
109 129
769 792
153 735
80 393
709 946
212 382
782 6
342 521
98 856
19 470
312 588
10 963
725 56
850 460
16 304
640 922
991 261
683 604
796 789
890 104
448 139
821 710
808 187
884 590
847 455
961 963
545 652
418 606
573 214
850 445
408 600
939 916
210 796
871 465
361 664
70 304
856 896
315 59
577 440
961 598
157 724
308 279
898 246
167 607
336 601
577 573
192 477
301 149
541 831
384 239
917 443
828 746
150 474
12 479
833 929
392 697
485 42
381 137
459 133
628 190
759 980
116 842
500 553
859 994
695 280
39 212
142 987
479 925
266 432
197 664
932 973
534 521
792 88
815 708
157 58
110 10
994 937
962 139
412 232
470 402
164 857
726 281
251 33
969 846
289 460
436 149
293 268
459 28
777 119
607 596
706 506
235 757
22 693
518 718
541 559
502 13
948 159
660 523
610 842
277 873
887 410
203 95
930 785
807 629
637 527
781 545
905 501
636 521
921 559
961 830
748 98
245 997
420 69
856 131
567 943
255 131
940 547
214 984
948 834
788 927
145 218
374 934
233 306
163 27
400 839
21 153
405 58
634 730
229 262
671 947
64 619
197 824
206 14
564 868
623 510
795 800
2 681
766 209
64 576
146 988
402 626
869 168
172 136
854 596
636 276
214 358
81 467
815 728
617 161
34 843
218 28
399 65
937 554
739 914
63 468
912 984
700 799
989 914
369 41
959 238
229 525
123 6
751 648
352 868
242 392
138 490
118 287
765 572
217 126
293 433
866 341
848 808
297 54
761 633
485 885
36 661
91 706
5 670
668 114
635 385
913 125
127 293
536 740
277 766
795 113
501 80
528 596
731 771
701 103
390 966
482 831
746 528
18 573
331 526
153 802
780 457
504 202
412 965
879 476
988 356
917 672
371 410
387 641
45 933
376 4
123 785
948 806
383 707
472 372
944 337
746 837
345 996
643 335
163 55
810 978
372 231
926 720
606 632
6 818
997 805
154 961
396 518
237 624
242 774
996 483
998 337
105 6
33 353
898 627
557 206
530 858
68 813
459 408
726 46
502 542
52 345
163 704
368 606
649 265
615 407
946 893
708 876
692 361
648 517
308 905
679 93
494 349
43 903
893 425
713 771
772 336
21 964
137 223
781 542
252 646
281 454
916 599
497 361
5 464
83 912
100 65
449 206
51 174
71 83
812 887
173 767
170 237
87 677
498 740
966 434
17 44
717 703
463 251
6 698
268 507
587 159
496 668
279 213
227 540
637 781
692 626
107 50
899 440
636 453
885 79
23 208
524 795
905 751
310 356
373 268
602 786
235 295
20 569
461 857
784 150
179 748
521 965
611 721
426 643
832 642
381 19
551 737
850 26
903 36
51 899
276 112
977 421
390 8
954 627
34 62
492 678
560 26
190 421
581 700
506 518
492 263
487 841
54 340
627 18
313 94
721 41
423 33
561 896
539 614
989 824
593 119
980 345
68 551
270 287
136 223
815 513
392 169
726 164
859 325
199 220
346 816
973 491
90 381
173 961
503 362
674 946
825 262
57 940
332 338
763 30
658 478
161 606
770 676
570 754
60 324
376 167
486 618
322 459
198 190
645 373
796 231
383 577
483 280
325 841
643 364
899 246
493 515
889 411
744 607
819 431
936 113
4 417
631 722
799 486
377 139
912 138
966 93
151 291
942 26
174 128
358 237
382 231
258 423
407 522
193 666
943 292
245 678
379 732
529 945
755 873
560 841
614 156
615 173
817 126
824 810
660 412
472 127
3 679
978 203
944 71
873 643
627 208
837 338
572 599
78 152
135 307
271 787
826 230
534 671
427 113
559 824
764 830
30 430
603 504
16 712
589 133
609 591
95 588
479 813
284 269
142 663
569 425
588 451
472 9
898 861
139 841
846 959
315 821
48 584
892 73
450 84
432 759
894 907
365 71
937 606
223 185
905 56
545 1
964 605
53 282
765 535
395 710
159 898
971 184
790 732
539 476
812 936
541 358
195 824
964 883
877 206
146 238
57 569
313 679
904 990
43 634
971 817
981 161
912 441
529 511
268 357
60 223
776 152
835 887
944 210
934 889
331 404
922 785
47 432
912 359
217 477
439 426
114 879
469 767
253 434
576 3
836 429
759 621
583 448
917 923
629 2
576 434
686 59
967 709
528 53
586 247
179 695
111 688
77 448
295 521
150 372
651 305
780 155
690 992
654 644
219 787
425 873
559 521
999 374
997 83
847 464
72 47
148 140
779 34
710 638
24 1
940 247
910 939
712 110
752 939
894 378
437 27
247 372
450 150
750 277
588 400
536 11
220 524
480 929
981 719
252 43
124 80
161 474
787 378
683 61
902 857
302 885
375 65
32 361
360 806
610 666
609 821
777 1
7 652
195 628
99 16
407 315
461 603
85 77
433 676
910 406
825 382
791 657
85 62
213 233
914 188
255 354
146 210
57 597
369 923
575 703
647 866
743 521
801 598
964 998
216 588
701 245
43 388
696 854
966 251
222 155
277 286
813 620
260 636
64 21
987 793
714 243
933 339
794 171
999 214
582 58
361 710
287 234
885 27
245 380
248 208
656 215
305 63
58 337
240 596
793 994
760 363
101 517
219 974
770 498
590 755
771 951
846 281
723 462
552 58
395 411
894 37
146 799
715 850
573 592
941 396
135 85
447 327
822 433
423 478
25 859
449 615
452 382
950 21
589 363
663 944
431 928
638 776
822 704
826 158
613 246
216 692
159 518
589 77
76 352
260 367
99 705
426 115
281 652
838 820
379 177
416 165
916 370
617 301
599 133
825 184
973 464
76 909
192 587
256 560
156 46
928 191
13 627
125 655
843 812
276 759
960 576
173 877
265 354
655 437
344 421
734 662
825 410
772 119
520 488
173 766
800 104
252 613
653 543
548 986
297 162
795 175
27 89
264 309
308 359
965 755
692 861
985 205
605 524
108 100
625 342
311 385
536 705
166 396
119 854
449 153
18 655
477 42
792 922
244 971
336 798
675 563
515 986
588 572
993 436
283 654
267 261
623 411
663 700
83 45
836 917
693 812
503 920
253 869
914 759
510 108
937 603
851 663
927 399
659 997
749 817
900 357
267 112
146 771
314 61
479 645
408 58
135 441
306 681
94 996
845 788
883 97
385 286
99 910
760 980
600 701
347 172
579 265
561 822
194 825
141 970
589 224
920 947
629 687
550 29
212 362
821 509
270 365
950 275
608 486
241 195
42 500
61 568
777 895
906 349
618 707
659 383
860 516
735 424
609 780
848 68
597 471
100 145
337 705
670 285
986 222
679 209
203 152
20 911
959 801
502 948
662 458
910 479
14 144
215 529
365 132
526 303
22 687
422 213
152 921
706 64
635 106
854 200
783 196
237 330
937 172
388 348
209 809
502 86
986 611
18 977
662 622
368 150
114 614
723 620
425 977
688 985
74 456
386 988
973 824
209 971
28 393
411 307
93 493
734 63
224 420
222 851
518 438
362 350
655 530
473 671
183 860
365 857
993 464
560 669
44 518
140 49
573 325
442 313
25 471
804 111
642 94
680 149
20 734
662 5
150 361
819 618
186 181
921 62
319 2
82 2
896 332
71 958
667 735
15 635
271 749
312 498
702 643
487 840
850 910
168 979
500 555
466 903
635 605
82 695
769 269
20 129
77 972
467 87
369 434
336 197
815 695
19 56
810 590
920 685
856 555
229 535
213 498
565 77
436 151
38 199
810 100
242 354
703 243
468 800
783 171
159 762
791 652
403 695
705 971
248 650
339 565
502 3
892 415
398 894
790 588
437 924
795 405
830 861
796 85
47 93
566 843
648 452
64 155
528 618
287 467
568 283
587 201
938 629
23 53
351 984
607 299
41 782
885 59
430 152
7 737
41 927
373 338
339 222
240 762
76 987
70 196
421 972
331 661
227 821
999 403
103 222
163 29
685 128
997 702
779 697
935 218
987 504
842 429
220 457
519 377
405 169
390 439
211 758
159 382
751 496
474 332
491 678
367 507
793 208
703 637
758 760
30 233
395 348
453 750
940 240
746 291
208 888
368 933
811 869
246 922
483 500
216 729
454 695
825 961
608 319
882 178
259 935
925 102
234 753
734 782
271 20
608 430
129 635
96 754
190 92
856 920
303 423
68 632
289 381
55 786
938 130
761 797
407 453
726 237
303 276
325 716
411 959
892 332
996 726
237 385
605 801
787 109
433 564
269 134
550 25
983 965
922 592
812 796
470 342
853 425
144 847
952 598
479 417
59 444
978 554
597 948
856 242
273 510
927 211
631 661
779 564
728 940
747 299
789 167
633 113
338 175
826 659
947 507
931 990
895 401
701 696
150 166
561 333
279 518
466 11
653 309
284 238
968 345
733 71
24 721
611 695
888 16
651 348
68 250
654 865
931 60
471 239
864 9
461 917
723 446
488 781
798 597
91 440
589 409
475 25
279 853
584 231
802 162
385 255
698 115
872 290
51 839
587 777
732 342
971 694
946 1000
360 101
480 283
52 347
579 611
129 982
868 53
778 493
484 910
584 340
86 571
695 608
207 878
262 677
372 422
673 2
756 442
476 925
20 415
763 165
65 242
707 319
565 133
877 115
949 358
735 341
169 844
597 276
599 490
412 496
469 306
114 752
298 507
551 514
155 414
28 128
729 53
54 254
776 194
653 772
800 216
912 386
531 344
496 271
792 829
634 68
28 422
423 399
912 273
951 592
607 210
478 258
923 179
378 670
948 742
953 948
987 221
117 243
600 211
582 39
343 625
988 330
241 971
679 807
173 210
214 774
729 610
16 147
169 468
64 655
475 327
441 475
6 909
957 931
120 150
999 296
968 452
769 149
491 721
873 214
51 901
768 811
923 797
687 37
253 424
536 422
479 954
262 980
923 906
91 177
416 484
906 203
856 818
85 448
109 314
534 979
369 405
372 808
599 59
585 906
60 753
669 41
467 753
17 706
768 262
406 604
502 949
696 104
734 736
203 104
791 619
86 295
810 271
530 34
752 158
18 974
40 610
409 507
373 938
815 71
763 382
213 785
520 227
483 601
784 808
602 547
587 189
456 649
734 60
222 848
444 186
136 635
235 901
395 998
218 987
554 593
331 712
280 614
832 83
248 154
654 396
685 266
851 94
796 677
376 62
672 635
214 802
949 693
343 650
624 356
224 114
957 598
372 170
410 395
547 198
804 255
97 341
563 624
508 297
951 233
883 207
520 943
641 63
208 913
220 260
24 39
416 401
716 548
609 732
459 469
465 196
49 375
747 682
664 948
788 24
60 951
152 314
280 367
122 744
854 297
983 399
489 607
886 766
194 60
775 707
401 369
768 371
129 655
117 932
212 584
131 437
930 475
161 288
221 902
728 486
969 988
199 83
874 963
526 200
296 257
574 244
961 17
672 108
617 705
28 383
781 151
296 446
571 719
153 986
300 607
497 355
376 269
305 823
912 345
314 719
277 441
188 228
151 464
800 494
804 430
625 639
623 988
25 257
98 729
945 368
585 217
378 230
742 444
239 171
776 726
54 864
144 626
344 760
608 773
55 26
991 830
851 235
153 737
802 957
569 926
97 369
671 77
598 999
579 935
567 108
509 996
310 255
333 182
275 250
188 671
105 47
177 650
215 182
830 142
144 105
383 876
21 489
160 579
860 312
661 185
105 329
329 989
185 97
133 897
928 439
471 767
347 437
699 600
722 603
7 633
213 292
351 16
52 102
661 524
475 617
459 172
635 823
191 381
568 252
524 281
200 768
256 530
938 18
901 174
763 107
86 252
198 474
973 524
317 40
174 659
172 201
322 414
786 113
326 446
44 907
999 925
503 626
431 145
606 257
623 685
277 763
888 998
304 695
732 760
767 278
790 331
210 705
601 304
692 921
568 679
830 555
541 652
802 652
326 890
846 185
538 178
136 898
712 609
885 138
211 439
741 587
690 315
233 188
620 568
54 946
892 673
225 448
547 111
270 714
551 591
607 851
243 228
225 561
63 817
430 736
380 923
303 697
219 31
510 562
101 95
641 144
99 626
561 921
691 790
284 704
211 864
51 759
570 153
520 449
66 392
787 408
839 796
130 877
972 932
350 976
646 173
152 737
560 302
318 50
801 52
488 345
643 49
56 125
916 739
7 754
601 807
319 684
144 736
986 875
878 437
40 529
991 254
120 99
151 849
357 964
981 948
801 278
291 736
485 411
147 644
296 330
762 837
190 810
467 419
910 227
734 295
184 511
888 915
636 989
52 702
92 611
808 308
216 593
120 845
283 354
247 557
766 999
87 342
397 214
792 201
753 744
541 767
563 91
925 832
505 423
344 995
532 998
757 145
871 425
374 707
983 723
696 768
931 876
55 188
80 520
408 495
192 326
177 22
551 130
72 828
14 899
291 26
63 742
362 941
774 500
232 433
672 830
966 560
471 242
388 710
744 702
55 765
681 817
337 123
229 61
466 929
642 956
883 16
846 132
542 157
600 814
439 919
367 784
738 900
885 851
246 963
351 466
933 657
897 411
536 69
133 985
493 967
160 873
507 2
316 612
827 290
318 46
624 541
713 828
536 867
664 344
683 148
160 7
652 861
924 154
285 976
859 503
147 819
611 374
391 40
464 605
69 654
30 924
325 532
118 245
999 596
624 842
183 523
494 696
410 412
706 352
84 188
585 625
801 540
344 161
587 47
221 357
743 416
356 776
710 171
303 771
791 46
939 891
946 21
909 159
692 593
896 770
235 230
384 255
305 229
596 53
231 114
770 150
20 617
221 184
3 381
595 503
192 418
926 525
340 730
80 472
605 210
20 728
556 506
810 774
762 511
600 462
819 620
573 596
701 592
906 680
375 645
728 562
471 150
698 214
699 115
223 849
480 715
723 377
651 244
484 259
357 27
289 811
689 315
209 28
559 852
532 600
971 736
848 373
665 289
280 193
526 738
301 597
86 789
991 69
384 815
591 596
439 715
850 686
600 953
43 947
545 405
602 174
507 46
531 253
463 715
851 985
1000 509
988 906
933 919
91 988
947 123
493 928
701 411
259 760
5 388
578 454
562 963
819 790
899 936
627 559
97 520
877 203
626 333
813 867
856 506
585 668
485 942
648 367
756 507
365 392
793 375
672 476
527 854
930 924
383 100
411 273
305 822
515 903
24 938
922 911
135 942
391 448
835 918
395 773
511 273
335 231
57 759
549 908
254 461
363 105
228 744
600 844
103 216
713 124
486 699
21 165
13 9
392 891
766 507
590 803
367 203
342 703
319 273
927 214
270 751
54 70
104 707
661 87
239 63
487 829
20 48
295 78
578 614
155 987
483 502
565 796
324 750
53 40
626 858
113 885
997 193
284 364
12 771
146 269
80 9
355 897
104 159
712 478
368 276
191 380
29 369
285 999
217 977
200 769
554 432
57 888
958 470
687 764
951 827
596 570
338 726
963 525
583 972
783 318
273 65
340 286
626 290
883 649
158 381
819 202
655 368
491 397
553 410
862 172
352 565
331 734
909 453
359 402
435 322
143 957
844 542
24 791
900 280
705 352
766 603
452 647
900 600
852 96
606 947
611 987
685 448
577 735
830 699
340 317
801 919
463 464
988 279
201 227
594 890
25 397
254 426
10 475
766 388
159 62
767 853
609 95
520 760
763 978
414 392
567 194
328 73
755 802
817 187
121 534
530 948
33 756
875 653
72 78
707 210
172 217
417 134
492 702
163 998
275 288
721 944
388 513
724 717
200 679
290 511
497 801
189 747
9 349
87 140
826 268
534 565
683 397
151 659
924 913
177 992
271 249
347 400
518 473
207 872
601 949
360 773
20 447
599 943
85 253
368 399
41 551
857 253
587 292
236 142
735 228
402 312
577 206
61 981
646 496
653 689
998 770
213 138
472 12
592 269
645 285
965 181
797 966
389 607
913 396
912 388
880 8
572 438
791 916
776 339
62 624
320 127
710 332
93 326
115 690
810 638
848 709
758 88
505 422
306 145
861 833
899 444
25 335
316 346
706 942
654 438
291 46
311 209
730 362
690 506
177 21
168 464
421 898
577 596
172 264
324 211
111 757
349 672
845 917
210 230
263 112
768 654
250 807
162 389
881 795
699 86
662 350
208 459
91 377
319 297
170 293
769 4
846 26
234 317
430 765
270 598
769 437
854 941
115 445
940 186
501 924
837 590
877 529
548 567
419 765
24 235
837 991
15 439
589 110
920 255
612 465
24 403
632 495
890 735
345 162
593 388
687 598
1000 386
986 221
520 441
958 31
338 892
98 67
506 861
695 868
783 193
473 800
493 733
296 295
683 949
354 101
190 711
891 950
50 362
932 525
572 491
293 198
61 106
524 582
731 990
532 677
790 385
279 132
653 951
691 124
308 602
35 480
740 600
757 195
745 779
690 188
611 898
741 863
153 798
192 308
32 685
162 596
179 558
92 277
993 70
871 93
61 333
605 209
328 163
715 561
443 210
707 609
250 712
768 747
469 938
831 512
82 1
854 867
33 707
768 666
881 775
632 79
758 659
172 18
393 715
546 259
803 432
253 473
347 28
310 128
216 25
148 806
480 699
707 812
64 826
284 619
584 33
507 338
215 29
846 225
684 4
683 655
502 555
327 724
574 559
461 270
262 833
428 601
786 583
167 252
530 576
695 682
480 909
85 196
919 795
484 678
583 858
285 947
490 935
682 57
540 911
647 997
428 925
165 94
347 791
41 448
278 407
219 375
160 306
554 142
477 845
351 948
411 355
840 815
663 109
604 939
67 991
791 988
623 121
980 11
726 755
825 50
508 788
953 101
420 66
168 251
996 96
723 875
27 456
306 345
474 791
515 23
774 768
830 668
887 981
13 350
954 396
666 56
153 107
851 124
779 747
118 525
232 748
240 749
505 696
269 517
384 337
624 265
748 529
923 520
319 387
232 635
750 989
567 249
718 383
409 819
603 653
834 419
474 331
604 602
812 151
231 597
345 734
971 830
633 45
661 86
609 653
875 965
464 188
82 263
967 714
569 751
560 38
815 886
837 518
34 981
697 147
551 792
863 538
973 198
852 716
315 996
651 846
449 298
360 155
103 893
932 893
39 469
190 67
156 343
873 963
560 987
512 167
180 93
627 748
99 391
546 889
596 724
136 106
179 396
532 392
887 452
303 119
17 426
435 167
166 277
259 501
482 214
247 986
127 288
933 125
274 682
592 433
757 921
575 520
300 686
943 52
691 7
182 654
623 796
737 709
102 497
904 162
573 168
794 183
631 662
373 699
192 205
410 188
585 874
799 947
921 296
685 319
776 613
562 10
486 114
982 855
1 282
124 617
258 363
903 281
84 681
747 155
514 88
328 251
873 280
79 374
837 422
250 768
883 280
632 24
465 471
68 116
513 129
971 845
236 834
280 28
278 571
372 386
85 727
671 176
655 735
802 161
323 990
497 855
993 586
760 811
524 406
817 356
911 502
974 62
81 417
523 214
63 17
780 767
794 672
56 801
328 518
38 977
310 618
61 528
78 502
560 337
686 753
583 623
143 62
402 900
789 744
56 616
355 956
48 532
268 989
216 470
753 993
503 157
588 229
198 162
338 808
339 513
359 578
30 934
714 607
182 985
40 930
810 202
135 696
207 574
423 717
869 621
247 777
468 970
251 458
217 206
689 500
383 217
352 611
283 461
443 668
317 187
305 659
838 263
30 832
259 126
20 85
984 23
917 193
162 879
969 325
643 132
572 294
59 477
424 206
814 351
841 259
326 213
353 105
525 41
903 492
598 720
988 797
576 510
745 473
83 158
945 15
839 687
76 877
866 11
559 604
121 576
896 356
21 77
964 131
376 882
340 789
290 62
992 332
495 107
261 495
725 842
300 395
854 550
603 354
181 184
328 836
882 279
449 752
573 85
197 686
989 642
258 802
688 179
449 353
289 216
916 419
225 805
403 80
939 2
119 226
589 349
986 43
750 64
398 377
407 409
63 491
144 703
329 757
471 534
700 988
863 368
328 585
373 740
646 425
781 398
126 887
868 919
127 410
915 312
611 457
424 509
79 551
703 441
175 112
827 673
75 132
421 400
631 907
409 504
445 266
306 80
397 103
153 963
464 780
446 908
529 104
201 791
847 320
814 379
446 799
912 143
642 312
823 601
910 697
280 617
424 611
220 195
325 13
421 543
671 820
510 140
991 967
867 717
561 394
871 173
569 903
831 515
874 98
456 215
335 577
671 251
582 450
763 860
397 656
881 919
224 706
812 67
831 481
564 260
732 362
769 400
57 422
591 417
632 302
975 518
446 208
211 941
816 579
7 897
232 107
507 435
703 25
6 315
467 801
12 1000
882 108
60 656
422 11
194 426
894 799
916 677
321 85
646 182
350 830
232 554
317 1
775 779
716 1
606 409
683 912
230 957
377 479
288 173
900 407
705 233
835 890
585 531
268 297
821 691
18 832
444 234
303 801
571 561
952 557
344 669
5 983
46 253
853 755
856 137
729 445
896 736
50 605
279 393
67 927
124 852
163 432
715 591
240 557
695 15
689 872
102 135
728 754
604 349
422 830
831 726
10 436
226 264
72 197
854 908
124 681
939 499
646 888
542 825
64 1000
181 335
115 455
617 905
871 516
379 330
696 632
103 416
848 339
441 99
9 295
925 241
431 632
342 429
890 136
207 993
971 840
651 833
105 479
582 859
675 892
906 808
267 713
471 617
4 780
686 948
835 282
947 756
34 551
827 435
726 80
449 228
89 13
145 227
754 297
351 245
620 331
970 273
950 795
773 882
479 337
856 472
436 612
531 320
71 139
273 208
348 524
421 424
938 706
309 402
514 533
292 475
166 500
10 788
957 939
122 272
396 105
607 267
981 781
995 749
746 685
174 82
535 111
296 828
25 482
499 343
559 357
616 869
966 297
325 791
456 418
508 25
376 121
802 621
508 398
272 340
789 337
444 206
839 524
603 635
31 498
987 472
418 981
384 173
976 599
295 85
580 345
521 653
10 138
894 105
175 928
34 20
732 419
474 479
57 365
99 998
246 843
634 845
96 436
298 784
483 276
401 537
111 260
350 580
427 205
881 266
76 236
683 28
976 34
7 606
488 348
786 799
129 756
4 992
21 974
80 134
137 193
623 383
496 214
313 512
132 76
852 595
854 161
108 984
568 10
786 193
435 21
353 428
260 168
354 95
611 61
259 464
636 984
105 896
956 983
465 852
672 262
801 742
415 354
663 216
313 956
245 57
887 638
448 213
749 633
349 107
153 768
465 630
652 222
853 683
512 841
729 501
383 284
684 591
836 914
395 220
743 167
73 458
55 46
862 714
75 692
308 89
45 20
690 331
886 545
582 197
969 128
897 931
456 45
534 56
520 662
619 320
768 688
253 66
404 68
78 23
82 426
690 685
71 746
589 441
688 86
319 184
360 423
214 454
659 567
243 370
940 180
362 620
864 998
683 346
629 682
924 576
100 160
582 784
269 383
206 516
726 335
233 618
986 40
380 271
381 546
428 661
268 962
752 549
971 261
38 220
55 854
169 771
556 665
886 944
934 992
999 421
602 491
506 452
415 770
677 507
768 393
695 870
455 509
576 706
830 219
725 495
639 681
617 384
256 844
478 49
856 481
378 109
640 994
94 97
596 483
925 543
253 162
378 988
568 260
454 89
809 126
828 206
489 789
961 811
598 416
847 323
30 606
407 350
338 337
966 87
861 163
48 229
24 960
41 746
249 843
656 133
468 419
676 200
714 391
610 340
978 272
27 612
500 995
690 367
918 871
866 556
758 614
284 839
546 430
555 708
665 4
574 60
81 189
962 734
391 818
695 224
788 454
185 879
556 170
738 837
544 802
263 372
246 477
453 646
935 262
258 916
177 588
140 458
931 423
698 422
40 474
441 951
25 560
820 885
693 225
678 639
132 759
720 193
426 52
191 244
748 759
916 311
898 966
977 839
686 921
126 712
87 404
971 289
973 403
38 75
977 609
212 298
798 593
655 488
308 709
899 826
351 801
301 550
282 984
688 875
636 913
515 746
368 843
131 213
886 41
864 832
804 756
640 893
883 853
511 60
832 149
995 867
446 937
378 867
966 32
553 93
58 613
934 962
80 793
779 527
767 321
6 668
182 729
504 36
236 555
663 486
723 75
789 981
251 780
106 203
444 921
419 234
681 707
358 282
944 315
802 953
695 38
399 613
527 835
442 56
172 97
870 8
263 186
174 499
693 513
965 300
636 26
185 794
591 388
521 656
707 893
944 25
428 138
695 196
897 181
863 870
111 13
663 938
724 106
416 433
94 816
756 325
557 372
100 481
708 224
