974 2597
247 740
378 184
142 714
727 68
477 785
203 24
266 302
819 268
74 919
383 896
884 155
243 959
230 935
394 903
1 859
735 954
24 14
168 872
299 782
351 504
470 714
677 546
300 141
90 585
664 920
746 457
452 710
380 223
189 296
737 940
973 665
153 262
808 775
724 698
12 129
286 288
468 737
237 484
423 4
562 925
248 504
342 865
533 679
776 408
860 258
321 954
770 609
628 747
596 774
426 449
668 64
815 147
473 888
623 694
132 627
23 939
503 756
16 640
955 930
813 42
657 936
951 778
826 256
457 936
672 354
395 660
177 345
915 748
720 146
150 195
795 215
691 486
965 523
359 300
110 711
615 323
206 346
265 668
502 939
618 882
681 544
331 17
922 314
762 128
871 294
657 500
773 262
950 265
827 964
403 749
410 633
527 305
175 396
804 508
458 554
574 137
99 897
578 363
745 604
755 320
910 346
134 661
801 157
168 826
903 265
7 340
524 66
877 575
639 807
34 466
159 612
452 498
109 4
515 257
847 265
636 251
32 105
231 651
473 201
8 434
332 239
8 653
831 7
872 631
462 606
178 347
736 876
355 935
279 870
12 611
328 681
331 377
257 726
954 545
903 262
324 215
280 31
77 543
651 781
636 325
374 793
951 785
182 76
576 82
725 521
500 679
925 87
263 592
840 946
158 446
436 719
384 509
310 874
105 565
970 857
331 769
940 881
67 743
709 60
345 444
968 708
971 231
312 872
594 675
961 397
745 360
383 849
413 896
860 404
423 363
447 353
696 697
802 285
381 552
68 968
480 109
373 616
828 937
435 256
239 782
130 155
59 35
207 300
246 852
962 413
84 726
513 909
16 739
256 711
27 843
84 467
85 459
338 451
378 685
217 182
625 17
110 118
311 522
854 972
283 658
198 757
357 934
885 518
932 941
583 41
56 29
244 116
874 239
285 97
714 187
435 877
493 841
924 593
925 177
854 281
160 442
401 509
553 136
111 885
738 148
333 155
244 861
155 522
466 435
359 810
712 433
342 92
639 654
791 243
794 21
246 823
599 881
315 76
485 588
578 340
40 617
374 203
97 648
494 506
481 553
905 159
634 711
12 929
826 334
57 958
747 844
444 183
929 79
175 892
942 467
253 108
93 643
740 434
698 658
595 756
66 506
140 47
587 516
936 321
221 180
95 304
7 281
156 852
34 409
967 380
400 851
838 516
658 773
179 721
718 685
151 448
377 354
545 669
469 178
109 288
383 427
437 916
578 146
83 103
967 603
141 379
43 376
861 804
640 315
346 219
3 842
479 80
709 883
649 386
195 466
514 428
952 545
169 563
319 686
67 770
838 680
839 3
496 119
14 393
90 454
165 488
719 758
299 350
428 301
949 642
967 807
92 552
320 510
452 672
312 786
487 805
268 709
71 16
2 98
421 33
81 174
761 9
102 307
158 399
531 294
933 523
623 660
974 440
778 312
376 525
694 454
353 102
643 177
459 13
383 532
744 280
361 405
368 449
294 610
133 341
854 907
736 956
715 775
208 575
462 292
139 873
141 817
56 88
902 428
503 531
490 773
514 115
34 953
349 831
65 143
249 474
127 643
167 23
22 309
415 612
380 202
239 172
955 688
460 964
724 582
771 655
668 881
686 252
109 38
204 305
956 3
441 532
522 479
138 732
26 541
374 37
447 337
108 497
329 849
643 390
789 38
481 212
652 149
69 927
503 624
267 715
717 260
774 213
388 109
725 324
887 853
800 869
394 730
424 836
371 356
464 69
941 717
600 71
102 235
363 841
606 488
751 74
149 95
465 474
17 431
59 128
239 557
494 336
974 101
244 322
137 648
841 656
328 360
926 758
28 773
363 945
608 815
536 497
442 99
144 212
219 895
163 730
652 308
374 760
729 36
50 226
748 461
749 548
323 802
575 685
285 836
767 192
789 921
558 37
118 482
782 263
931 542
624 28
749 838
570 40
808 211
954 286
813 41
232 602
184 263
863 843
149 694
496 766
580 347
366 707
521 691
133 8
349 622
209 869
585 686
604 240
567 508
609 686
172 287
325 303
840 305
512 682
115 680
620 103
129 552
705 487
10 663
720 428
486 912
469 371
147 393
293 746
405 406
23 758
48 450
543 570
273 185
844 235
369 205
461 234
355 635
417 473
18 194
719 437
645 562
854 720
49 182
358 973
490 439
237 788
695 909
476 230
687 651
279 325
530 623
173 211
927 510
108 662
338 124
274 192
554 837
39 320
212 660
230 31
784 151
125 854
937 862
974 244
392 816
184 866
824 787
918 196
424 267
340 348
949 4
653 651
811 908
114 741
346 388
262 499
944 742
529 489
16 606
371 239
153 32
373 543
447 89
931 570
969 235
739 719
61 317
707 534
502 401
676 334
261 792
883 642
760 753
624 230
164 508
402 547
523 476
526 6
621 305
731 170
441 40
192 599
893 839
33 502
658 546
830 214
815 811
46 655
800 458
695 102
516 875
67 269
360 257
569 595
789 94
211 503
140 380
841 108
640 924
499 817
398 956
20 441
739 502
631 828
535 527
607 642
719 393
650 733
263 98
240 233
404 543
611 893
902 319
709 953
623 627
589 671
822 891
42 938
143 576
239 799
21 131
150 361
615 656
248 450
305 208
434 564
311 676
385 515
521 78
924 592
563 455
714 633
426 64
816 760
340 187
940 711
5 711
708 498
869 285
68 282
790 875
540 289
117 589
460 140
620 33
641 279
130 427
423 531
445 800
820 964
610 945
811 39
403 897
667 724
134 861
946 770
758 415
749 410
550 542
267 801
82 210
213 813
970 869
573 810
501 892
381 813
330 218
441 258
223 94
449 799
730 302
780 447
600 888
341 368
306 895
290 517
186 409
595 392
580 903
210 918
471 567
973 401
603 514
858 262
808 251
537 637
241 264
134 363
15 889
512 754
841 533
322 122
578 615
456 973
611 522
869 376
869 819
79 740
837 52
731 830
22 746
172 469
743 451
377 651
550 289
571 249
920 303
496 865
886 772
212 307
489 85
252 391
255 383
806 69
225 534
922 500
527 382
659 530
548 827
808 361
923 415
926 470
250 633
414 219
806 146
699 436
221 349
848 351
901 747
544 952
658 317
213 126
556 951
233 91
572 535
262 813
510 393
813 283
190 92
46 884
226 221
317 327
245 416
230 70
821 284
399 345
537 935
39 837
598 897
551 233
931 763
534 505
420 778
150 827
283 684
837 344
766 118
641 485
883 182
496 601
603 250
734 469
725 776
156 655
586 73
695 332
254 516
384 291
900 286
530 348
725 308
412 491
434 952
256 647
929 125
823 710
697 700
739 898
974 106
885 26
633 113
155 757
707 416
357 44
765 789
343 9
364 709
129 328
529 420
416 449
456 632
623 792
493 888
645 454
819 930
575 515
238 948
791 678
225 30
189 581
631 658
384 527
347 409
459 790
153 269
742 249
392 136
963 252
807 962
938 712
83 339
48 420
178 69
757 747
107 764
288 946
241 341
103 791
56 745
845 919
701 317
958 718
598 175
159 22
655 865
897 691
518 556
443 642
405 839
480 829
444 787
28 312
30 204
766 250
470 791
52 694
368 318
366 281
207 799
563 34
428 836
251 676
41 204
956 504
823 567
419 286
264 167
567 512
676 161
162 484
91 438
419 495
88 80
117 288
449 624
472 836
789 613
63 320
943 207
965 643
179 383
164 745
807 833
97 730
757 348
923 742
304 118
840 755
727 21
467 217
663 77
630 479
571 466
121 353
360 444
30 836
533 77
457 300
223 230
62 629
215 514
842 815
723 16
428 529
321 606
175 858
710 408
513 802
382 865
1 3
809 878
60 539
702 430
760 102
66 404
160 849
509 354
439 27
633 22
49 453
909 738
38 540
627 730
520 245
5 627
599 256
340 390
15 841
145 368
964 256
564 88
769 558
857 463
844 901
904 61
631 591
33 864
487 465
275 799
701 178
701 893
943 928
748 550
207 302
445 357
268 482
698 852
881 28
962 833
304 470
393 464
254 350
878 707
864 35
864 616
885 88
173 737
636 881
840 631
718 632
393 866
3 873
409 609
449 391
592 748
71 593
36 346
455 510
562 936
612 848
583 770
586 904
71 960
854 964
405 252
315 825
248 741
304 348
749 423
660 947
664 833
4 831
404 452
867 164
139 546
691 466
585 841
408 377
597 900
484 694
964 291
855 897
162 312
436 964
942 648
960 699
406 2
889 446
357 139
943 720
158 265
291 222
954 744
797 78
599 198
452 875
644 455
476 956
486 109
320 627
944 200
67 395
713 413
37 245
900 248
635 604
469 949
552 343
200 844
443 326
658 303
672 848
807 93
511 352
834 262
543 615
879 480
877 356
716 972
970 787
310 336
701 641
614 418
389 672
453 618
430 873
920 420
313 16
441 766
633 164
944 964
391 6
798 654
112 471
233 853
812 349
279 128
357 189
357 328
565 366
109 866
543 620
582 898
537 802
116 859
742 366
284 639
130 448
832 925
232 940
635 145
247 175
397 905
180 303
679 322
44 161
834 828
500 867
780 877
359 646
804 430
888 204
209 781
643 879
751 790
717 749
517 729
813 441
193 305
345 576
846 259
919 6
755 206
580 798
754 312
756 737
483 648
689 85
391 318
618 654
448 709
32 170
291 679
150 596
348 409
208 36
20 509
369 632
443 721
778 148
749 864
453 894
955 33
938 43
300 642
652 960
546 606
859 112
914 48
620 243
6 763
190 242
602 952
515 470
183 945
421 465
521 296
101 211
247 404
657 310
533 619
384 446
162 213
478 742
17 650
257 209
349 128
868 343
330 185
873 164
162 920
326 303
371 938
275 565
495 214
540 548
299 414
708 827
382 171
515 479
241 632
220 499
776 636
273 662
542 505
963 836
198 132
471 613
917 192
168 268
385 794
815 917
230 565
466 602
929 837
380 591
1 188
224 35
294 570
669 336
891 480
670 492
489 65
87 554
861 297
760 399
346 428
11 84
582 397
70 236
54 478
554 220
703 509
854 525
598 694
909 366
258 365
233 891
406 488
777 865
737 131
743 859
245 668
302 24
747 893
861 652
290 342
679 155
461 916
230 289
195 248
880 740
114 389
575 16
137 74
842 279
219 31
347 66
203 268
296 122
571 226
958 550
65 693
686 529
262 562
322 690
490 871
968 790
899 619
519 708
264 210
283 222
157 78
876 252
136 907
807 148
798 276
468 60
469 550
310 519
847 583
556 811
278 326
300 412
563 875
158 6
215 670
181 175
457 655
314 346
66 170
808 220
214 478
210 682
798 396
429 844
474 640
888 729
669 172
402 305
303 9
14 468
917 712
198 232
257 350
575 6
467 733
670 739
967 423
698 2
220 706
295 581
166 855
597 427
120 33
146 576
703 197
629 309
314 216
25 581
467 110
680 584
182 5
204 477
821 666
619 144
394 344
238 132
516 783
921 723
816 97
506 907
948 773
555 396
356 454
713 53
931 74
326 512
844 568
648 649
738 576
577 966
62 709
67 368
838 593
108 438
2 765
260 147
669 745
263 589
220 244
168 668
689 859
173 202
272 20
889 876
51 674
819 537
6 43
752 79
860 480
398 547
20 690
330 66
759 530
243 853
613 16
686 283
11 420
142 702
932 210
757 141
942 602
797 98
525 744
471 120
792 286
647 21
557 610
642 112
104 769
126 919
183 675
333 531
731 221
2 860
223 425
495 340
850 709
393 28
29 427
623 519
493 734
84 329
336 653
649 697
63 385
302 843
495 960
496 610
244 523
687 454
213 784
735 288
756 637
831 326
616 525
745 1
963 475
442 30
836 875
305 477
600 1
615 944
912 141
434 833
145 921
770 231
216 527
323 469
623 198
238 160
922 656
667 770
390 858
171 495
239 793
494 68
518 906
363 455
818 317
748 113
179 790
345 79
915 471
221 548
578 698
813 118
282 600
22 280
446 186
285 232
655 409
606 425
540 610
651 699
709 928
565 614
657 781
414 82
930 795
457 359
315 270
536 441
596 825
904 930
615 396
581 177
31 581
552 457
822 245
726 394
284 70
182 227
213 439
167 545
297 867
497 755
163 307
399 105
95 149
526 113
395 299
515 287
2 469
506 214
630 165
957 75
557 582
30 734
553 627
113 753
760 617
874 614
281 254
68 515
413 969
849 387
151 474
517 10
451 612
517 394
225 87
647 891
449 497
57 321
668 871
373 594
181 224
255 425
96 83
463 115
294 543
957 437
748 913
712 242
492 522
608 291
187 253
564 921
564 470
247 650
675 717
273 174
678 448
536 612
156 781
58 696
497 947
280 754
939 702
135 641
427 968
582 576
114 329
80 654
468 816
863 530
477 105
329 273
255 575
156 917
250 421
180 617
400 916
112 398
134 499
447 445
506 276
366 658
76 803
917 371
93 769
410 928
57 389
471 948
480 202
962 655
299 623
321 352
304 45
419 970
803 536
201 443
311 560
807 655
818 832
31 496
575 846
13 763
182 775
38 347
373 557
526 508
322 678
897 887
844 90
495 431
7 388
783 580
308 242
769 811
901 936
761 970
667 215
336 11
11 651
802 831
913 224
309 200
863 657
866 781
443 36
918 408
556 903
578 26
108 717
313 930
815 773
908 758
284 755
305 229
895 189
627 528
186 96
388 740
480 269
9 887
468 361
623 580
961 662
161 245
478 13
406 717
381 767
919 521
223 140
769 19
579 892
911 926
19 648
721 517
866 624
410 938
712 277
289 753
879 139
48 471
473 266
57 612
354 501
643 570
29 864
196 282
730 389
715 622
689 708
714 145
572 279
438 122
332 307
447 308
210 253
831 925
449 646
264 959
675 518
198 891
127 510
862 440
737 244
206 554
781 451
840 235
396 569
515 683
147 751
259 489
189 770
557 968
962 514
762 359
835 359
51 801
506 307
919 202
64 206
689 331
446 343
357 429
50 433
342 339
492 708
671 897
80 93
57 160
571 808
537 872
937 198
594 33
244 237
561 627
584 23
541 561
71 365
76 435
166 387
487 892
315 394
617 420
782 276
785 945
950 405
312 862
207 663
261 144
597 265
872 417
963 439
530 731
268 70
235 253
643 904
510 330
773 373
350 133
280 524
78 451
960 190
136 411
391 264
87 371
906 294
642 819
32 95
717 152
847 387
940 743
647 749
688 823
347 962
813 565
703 170
355 613
118 628
970 16
398 601
947 861
827 44
376 74
374 680
805 279
219 259
129 116
281 51
482 585
855 733
381 224
91 845
845 785
972 415
94 669
528 531
12 201
21 94
693 286
531 34
5 335
474 185
711 134
618 226
565 852
513 825
454 267
367 896
668 918
481 740
430 224
927 738
548 344
198 187
458 28
424 912
434 101
897 241
220 99
772 304
679 932
702 266
407 609
121 789
424 162
334 677
184 414
580 837
380 744
548 653
625 21
664 973
554 596
955 645
278 609
29 677
568 968
970 299
734 256
535 721
590 435
258 533
243 209
873 74
360 872
627 119
555 498
685 160
929 745
320 406
445 700
585 20
197 267
368 541
211 178
435 96
336 59
941 530
781 392
768 643
516 256
628 13
4 231
81 755
801 112
899 567
217 300
384 454
665 430
356 276
341 152
345 618
327 405
762 662
135 248
726 37
855 899
548 556
900 27
402 818
185 66
166 561
724 944
824 921
137 339
731 91
658 921
236 224
933 273
900 296
14 944
832 83
193 742
837 181
711 81
911 691
254 473
660 836
239 944
313 343
740 679
879 949
50 495
89 184
678 800
159 661
278 808
616 636
937 55
880 177
155 623
966 67
664 802
735 642
794 685
619 550
338 137
474 481
130 200
832 365
316 182
924 643
285 770
548 54
452 440
338 864
691 809
526 863
466 524
508 797
507 783
181 706
77 347
276 682
317 2
915 158
152 871
227 928
577 206
108 595
458 622
937 30
244 616
870 748
891 156
932 476
814 415
7 451
319 81
224 323
739 209
524 840
355 216
429 140
266 318
413 882
75 292
220 937
888 281
320 144
283 338
913 720
130 804
672 468
175 574
54 805
398 614
662 755
535 355
353 201
675 612
888 329
206 19
775 347
63 910
634 598
733 717
168 369
561 145
725 120
679 655
800 161
505 157
341 212
325 453
130 360
331 892
47 934
157 247
323 243
414 261
879 595
492 183
701 80
99 600
247 191
528 191
126 820
568 667
406 754
962 377
357 353
693 199
531 203
18 456
788 368
413 886
314 846
479 711
355 896
118 748
881 409
15 673
441 687
181 458
814 898
799 671
836 427
565 755
33 450
969 877
325 772
814 597
205 878
938 16
224 595
174 550
765 396
752 821
181 432
18 407
368 558
131 273
120 809
637 653
420 462
521 343
831 443
706 310
656 212
235 597
516 43
174 883
410 768
655 638
197 306
806 678
973 103
908 329
727 70
914 493
111 824
607 711
884 643
829 339
191 143
641 520
109 648
275 685
862 915
387 49
775 8
749 952
183 587
833 335
817 355
80 875
246 343
452 563
176 452
756 10
478 106
819 170
470 928
532 525
77 194
870 385
727 733
530 90
839 563
20 553
656 279
812 599
258 69
180 217
970 689
3 897
551 753
898 878
168 538
152 191
885 435
320 662
251 309
508 701
95 236
243 239
870 887
814 736
391 170
784 697
952 74
183 4
920 89
455 314
525 932
801 187
638 130
73 921
698 959
254 572
921 942
123 559
388 633
571 954
236 340
111 855
222 462
119 680
452 780
154 585
274 383
883 151
868 30
703 490
651 45
429 929
18 175
418 200
797 183
305 748
175 745
826 172
242 416
61 892
904 760
581 432
50 636
861 661
354 89
961 39
565 429
234 265
272 614
776 204
461 14
869 145
623 313
302 679
527 426
838 382
164 345
294 59
46 971
840 291
586 779
540 384
505 430
105 849
255 788
952 182
255 253
57 456
559 92
686 778
265 46
339 51
14 537
329 867
457 156
486 944
386 128
280 120
617 638
724 627
146 696
637 430
416 738
680 879
809 698
826 949
222 218
192 596
660 927
807 888
764 476
696 559
35 8
881 24
494 32
295 458
276 648
501 780
601 758
669 655
370 847
425 534
508 705
198 184
697 751
784 12
119 548
600 648
585 590
14 229
516 910
349 971
230 760
146 116
369 306
873 693
48 772
953 391
260 728
286 600
142 363
950 84
697 752
144 8
573 755
798 136
619 22
322 631
34 758
255 439
848 206
315 425
482 698
636 165
52 409
941 952
422 192
643 827
815 828
814 812
799 918
533 184
329 901
384 706
496 71
480 310
842 620
827 877
311 52
796 270
227 797
746 887
468 687
695 281
623 748
476 882
577 145
531 56
481 966
94 767
96 63
97 362
419 111
311 156
170 166
752 332
873 426
66 342
345 180
435 237
965 543
887 196
950 19
342 278
408 644
643 321
954 924
495 650
758 4
449 732
227 189
696 715
238 86
757 665
723 860
120 775
944 484
786 580
588 504
897 485
293 111
320 131
678 50
431 698
973 259
746 306
859 522
966 354
876 945
295 770
717 830
917 938
77 607
813 522
122 655
466 525
217 689
642 520
45 817
74 638
517 392
424 457
686 383
444 894
545 428
344 16
108 228
206 367
197 349
627 82
574 896
333 558
853 258
263 839
972 830
437 624
673 269
746 585
122 178
659 649
531 562
42 454
557 549
411 184
413 226
32 714
737 576
185 131
793 380
44 808
226 199
583 1
179 272
456 156
883 859
520 734
463 135
809 197
671 500
286 644
721 656
92 723
797 627
227 576
29 84
742 166
496 256
922 586
574 287
262 113
30 678
753 818
400 805
773 782
744 501
706 340
491 629
475 360
440 310
575 618
566 205
660 469
589 537
274 398
721 116
924 764
190 778
546 771
171 206
88 257
17 621
74 918
955 256
8 803
307 653
585 324
82 953
395 767
32 787
413 319
89 294
274 231
893 197
911 410
816 355
349 787
139 579
437 813
282 773
716 721
842 916
720 276
349 761
102 334
430 618
607 161
71 908
774 319
334 856
834 951
603 254
107 952
220 140
130 379
369 36
594 458
408 318
746 836
824 571
309 61
927 275
532 124
405 522
264 658
579 774
727 91
419 674
495 557
157 696
848 582
584 626
836 228
550 20
436 39
473 731
75 571
97 71
957 14
758 705
671 49
359 873
803 322
321 709
86 745
82 337
514 89
695 321
202 64
313 502
405 88
188 284
509 20
678 394
855 571
142 841
487 637
18 299
225 761
954 687
152 850
934 916
236 736
287 111
626 39
681 221
936 851
611 156
77 669
577 583
924 717
525 287
969 237
894 961
478 276
283 211
675 95
394 62
738 549
847 183
267 266
287 199
608 25
742 569
837 416
892 571
640 329
456 464
165 418
294 723
23 499
498 941
229 144
11 293
358 636
217 51
695 343
436 331
682 958
119 826
581 438
266 800
576 533
722 418
948 120
305 513
30 381
951 910
463 349
844 497
850 949
135 701
377 407
642 937
419 45
375 584
98 628
184 538
432 416
158 159
141 125
861 814
272 782
99 56
407 798
191 488
698 765
183 290
702 790
100 598
48 111
512 702
911 958
458 607
562 857
872 652
562 47
374 625
490 665
182 208
382 92
790 498
24 119
246 202
78 169
697 267
310 973
21 219
292 645
308 166
550 365
571 37
577 257
449 280
571 610
583 495
720 552
384 621
940 37
135 453
344 253
508 231
71 680
679 937
369 242
828 914
69 753
197 263
363 35
734 765
625 799
679 755
666 837
24 312
794 292
800 484
967 546
715 295
609 918
739 579
171 712
724 95
592 363
565 963
215 718
506 974
97 125
668 460
662 1
176 177
86 89
773 722
904 202
99 478
100 877
558 925
307 320
678 337
664 928
516 705
205 320
702 6
887 581
908 283
32 116
127 623
862 413
757 574
885 36
741 751
153 334
924 443
120 492
511 636
476 562
296 184
635 725
620 409
362 719
787 47
755 633
955 11
443 223
597 903
287 459
931 441
495 756
295 6
351 165
856 174
286 561
802 438
630 842
580 813
871 917
68 393
602 833
770 552
899 852
868 279
885 521
923 74
474 926
724 649
476 307
926 453
217 565
913 48
676 532
271 784
20 731
184 532
496 294
222 513
283 766
655 117
604 854
270 13
223 973
238 13
135 956
26 29
446 750
537 852
93 67
221 142
188 825
580 926
27 54
266 40
146 514
844 711
295 536
901 420
409 378
928 907
677 859
18 21
806 250
921 924
223 385
219 974
600 956
603 696
498 43
487 557
769 868
360 816
452 862
364 744
727 964
331 260
60 222
789 57
725 886
467 657
359 370
469 414
910 87
533 964
754 179
496 143
250 303
488 110
270 426
325 266
437 137
39 91
498 580
706 417
856 131
602 382
567 26
329 498
237 297
567 409
756 81
69 96
832 956
686 817
467 809
156 817
71 749
420 315
919 745
116 490
193 316
969 888
343 745
419 229
974 881
78 720
635 149
211 263
965 839
503 648
161 81
383 525
258 99
84 260
670 519
197 126
641 738
74 318
823 624
288 250
577 752
540 508
193 132
394 15
343 96
468 715
148 453
611 917
723 75
525 717
892 196
595 883
820 856
663 168
78 731
82 422
103 298
556 376
842 29
341 563
640 563
493 800
29 83
941 762
970 492
881 191
8 829
429 784
316 283
159 833
273 229
609 643
25 447
136 299
68 379
837 627
164 716
94 816
497 333
280 875
831 149
