A A Y 0 0
T A N 1 1
C T N 2 2
T A N 3 3
C C Y 4 3
T T Y 5 3
T T Y 6 3
A G N 7 4
A A Y 8 4
C C Y 9 4
C A N 10 5
C A N 11 6
C A N 12 7
C A N 13 8
T G N 14 9
G A N 15 10
A T N 16 11
G C N 17 12
T C N 18 13
T G N 19 14
T G N 20 15
A A Y 21 15
C C Y 22 15
G G Y 23 15
T G N 24 16
A G N 25 17
G G Y 26 17
A C N 27 18
G C N 28 19
C A N 29 20
G G Y 30 20
T T Y 31 20
C T N 32 21
A G N 33 22
G G Y 34 22
T G N 35 23
A A Y 36 23
C T N 37 24
C C Y 38 24
G G Y 39 24
C C Y 40 24
C C Y 41 24
G A N 42 25
G C N 43 26
T C N 44 27
T A N 45 28
C A N 46 29
T G N 47 30
A A Y 48 30
G G Y 49 30
G G Y 50 30
G G Y 51 30
T C N 52 31
C C Y 53 31
A T N 54 32
T A N 55 33
C T N 56 34
G G Y 57 34
A A Y 58 34
T G N 59 35
T A N 60 36
C C Y 61 36
T C N 62 37
C C Y 63 37
C C Y 64 37
T T Y 65 37
A A Y 66 37
G C N 67 38
G T N 68 39
T C N 69 40
A C N 70 41
G G Y 71 41
A A Y 72 41
A A Y 73 41
A A Y 74 41
C T N 75 42
T A N 76 43
C C Y 77 43
G G Y 78 43
A G N 79 44
T T Y 80 44
A A Y 81 44
T T Y 82 44
G A N 83 45
A A Y 84 45
G G Y 85 45
A A Y 86 45
T T Y 87 45
G C N 88 46
T C N 89 47
C G N 90 48
C C Y 91 48
C G N 92 49
T T Y 93 49
A A Y 94 49
C T N 95 50
C C Y 96 50
C C Y 97 50
C G N 98 51
A A Y 99 51
T T Y 100 51
C T N 101 52
G T N 102 53
T T Y 103 53
G G Y 104 53
A G N 105 54
T C N 106 55
A T N 107 56
G C N 108 57
G G Y 109 57
T G N 110 58
C G N 111 59
G A N 112 60
C C Y 113 60
C T N 114 61
G G Y 115 61
T T Y 116 61
G G Y 117 61
C C Y 118 61
G G Y 119 61
G G Y 120 61
T A N 121 62
G G Y 122 62
T G N 123 63
T C N 124 64
C C Y 125 64
G T N 126 65
T T Y 127 65
G A N 128 66
G G Y 129 66
T C N 130 67
C G N 131 68
A T N 132 69
G A N 133 70
T G N 134 71
C C Y 135 71
A A Y 136 71
C A N 137 72
G G Y 138 72
A A Y 139 72
C G N 140 73
C T N 141 74
A A Y 142 74
T T Y 143 74
T T Y 144 74
C T N 145 75
C C Y 146 75
C G N 147 76
A C N 148 77
G G Y 149 77
A C N 150 78
C G N 151 79
T T Y 152 79
T T Y 153 79
A A Y 154 79
A A Y 155 79
G T N 156 80
T T Y 157 80
C G N 158 81
G G Y 159 81
G C N 160 82
T T Y 161 82
C C Y 162 82
G G Y 163 82
A A Y 164 82
A T N 165 83
C T N 166 84
C C Y 167 84
T C N 168 85
G G Y 169 85
G C N 170 86
C A N 171 87
A G N 172 88
C C Y 173 88
C G N 174 89
T C N 175 90
A A Y 176 90
G T N 177 91
G G Y 178 91
C C Y 179 91
C C Y 180 91
A G N 181 92
A C N 182 93
C C Y 183 93
G T N 184 94
T T Y 185 94
G T N 186 95
G G Y 187 95
C A N 188 96
C C Y 189 96
T T Y 190 96
G A N 191 97
T G N 192 98
C C Y 193 98
G C N 194 99
C A N 195 100
A A Y 196 100
A T N 197 101
T A N 198 102
C C Y 199 102
C G N 200 103
T G N 201 104
C C Y 202 104
A G N 203 105
A A Y 204 105
G C N 205 106
G G Y 206 106
C G N 207 107
T C N 208 108
G G Y 209 108
A C N 210 109
G G Y 211 109
C C Y 212 109
G C N 213 110
G G Y 214 110
T G N 215 111
T T Y 216 111
C C Y 217 111
A T N 218 112
A C N 219 113
T A N 220 114
G G Y 221 114
G A N 222 115
A T N 223 116
A T N 224 117
C G N 225 118
A A Y 226 118
A G N 227 119
C C Y 228 119
C C Y 229 119
T T Y 230 119
A T N 231 120
T G N 232 121
C G N 233 122
A T N 234 123
C C Y 235 123
A G N 236 124
C C Y 237 124
A C N 238 125
A A Y 239 125
C C Y 240 125
G G Y 241 125
G A N 242 126
T T Y 243 126
T C N 244 127
T A N 245 128
A A Y 246 128
T T Y 247 128
T T Y 248 128
A A Y 249 128
G G Y 250 128
T T Y 251 128
C T N 252 129
C C Y 253 129
T T Y 254 129
T T Y 255 129
G C N 256 130
G C N 257 131
A A Y 258 131
C C Y 259 131
A C N 260 132
T C N 261 133
A A Y 262 133
G T N 263 134
C C Y 264 134
G C N 265 135
T T Y 266 135
G A N 267 136
G A N 268 137
G G Y 269 137
A A Y 270 137
G G Y 271 137
A C N 272 138
A A Y 273 138
T T Y 274 138
A A Y 275 138
T A N 276 139
A A Y 277 139
T G N 278 140
A G N 279 141
T T Y 280 141
C C Y 281 141
T T Y 282 141
C G N 283 142
G G Y 284 142
T C N 285 143
T T Y 286 143
C C Y 287 143
C C Y 288 143
T T Y 289 143
A G N 290 144
A A Y 291 144
C C Y 292 144
C G N 293 145
T A N 294 146
C C Y 295 146
G G Y 296 146
C C Y 297 146
G C N 298 147
T T Y 299 147
C G N 300 148
G A N 301 149
A G N 302 150
C C Y 303 150
G A N 304 151
C T N 305 152
T A N 306 153
T A N 307 154
A T N 308 155
A C N 309 156
C T N 310 157
C A N 311 158
T T Y 312 158
C A N 313 159
T T Y 314 159
G G Y 315 159
G G Y 316 159
C C Y 317 159
C C Y 318 159
C C Y 319 159
C T N 320 160
C T N 321 161
G G Y 322 161
A G N 323 162
C G N 324 163
G G Y 325 163
G C N 326 164
C G N 327 165
T T Y 328 165
C C Y 329 165
T C N 330 166
C C Y 331 166
G G Y 332 166
T C N 333 167
A A Y 334 167
G G Y 335 167
C C Y 336 167
G C N 337 168
C C Y 338 168
T T Y 339 168
G A N 340 169
A T N 341 170
C G N 342 171
C T N 343 172
C A N 344 173
G C N 345 174
T T Y 346 174
T T Y 347 174
C T N 348 175
T C N 349 176
T A N 350 177
A A Y 351 177
A A Y 352 177
A G N 353 178
A A Y 354 178
T G N 355 179
G G Y 356 179
T A N 357 180
T C N 358 181
C T N 359 182
G A N 360 183
C C Y 361 183
C A N 362 184
T G N 363 185
A C N 364 186
T T Y 365 186
A T N 366 187
G A N 367 188
G A N 368 189
C A N 369 190
A A Y 370 190
G G Y 371 190
G C N 372 191
A A Y 373 191
G C N 374 192
C C Y 375 192
C A N 376 193
A G N 377 194
G G Y 378 194
T T Y 379 194
T T Y 380 194
C A N 381 195
G T N 382 196
T G N 383 197
T T Y 384 197
G T N 385 198
A C N 386 199
G A N 387 200
A T N 388 201
T G N 389 202
A C N 390 203
A G N 391 204
A C N 392 205
C T N 393 206
C A N 394 207
T T Y 395 207
G G Y 396 207
G T N 397 208
T A N 398 209
A C N 399 210
C C Y 400 210
G G Y 401 210
G A N 402 211
G A N 403 212
A A Y 404 212
T G N 405 213
A T N 406 214
G A N 407 215
A G N 408 216
A A Y 409 216
C A N 410 217
G G Y 411 217
G T N 412 218
A G N 413 219
G G Y 414 219
G G Y 415 219
G T N 416 220
C C Y 417 220
T T Y 418 220
G G Y 419 220
G A N 420 221
C C Y 421 221
A A Y 422 221
T T Y 423 221
C T N 424 222
C A N 425 223
A A Y 426 223
T A N 427 224
G C N 428 225
C A N 429 226
G T N 430 227
T T Y 431 227
C C Y 432 227
T A N 433 228
T G N 434 229
T G N 435 230
T G N 436 231
T T Y 437 231
T T Y 438 231
T G N 439 232
G A N 440 233
C G N 441 234
T T Y 442 234
A A Y 443 234
A G N 444 235
A C N 445 236
G T N 446 237
C G N 447 238
G G Y 448 238
G G Y 449 238
A G N 450 239
T A N 451 240
A G N 452 241
T G N 453 242
T T Y 454 242
G A N 455 243
A A Y 456 243
G T N 457 244
T C N 458 245
G C N 459 246
C C Y 460 246
A A Y 461 246
A A Y 462 246
A C N 463 247
G T N 464 248
T T Y 465 248
C C Y 466 248
T T Y 467 248
G C N 468 249
A C N 469 250
C C Y 470 250
G C N 471 251
G A N 472 252
G T N 473 253
C C Y 474 253
G C N 475 254
G C N 476 255
G G Y 477 255
C T N 478 256
A A Y 479 256
C G N 480 257
A C N 481 258
G T N 482 259
A G N 483 260
T G N 484 261
G G Y 485 261
A A Y 486 261
G G Y 487 261
A T N 488 262
T C N 489 263
C C Y 490 263
G T N 491 264
C A N 492 265
C G N 493 266
G A N 494 267
G G Y 495 267
T A N 496 268
T T Y 497 268
C A N 498 269
G G Y 499 269
T T Y 500 269
A G N 501 270
G T N 502 271
T C N 503 272
T G N 504 273
C C Y 505 273
T A N 506 274
C C Y 507 274
T T Y 508 274
T T Y 509 274
A C N 510 275
A A Y 511 275
C C Y 512 275
G G Y 513 275
G G Y 514 275
T T Y 515 275
A C N 516 276
C T N 517 277
G A N 518 278
T T Y 519 278
C A N 520 279
A A Y 521 279
T T Y 522 279
G G Y 523 279
A T N 524 280
C C Y 525 280
G T N 526 281
G T N 527 282
G A N 528 283
G G Y 529 283
A C N 530 284
G T N 531 285
C A N 532 286
T C N 533 287
T G N 534 288
A T N 535 289
G G Y 536 289
A T N 537 290
A A Y 538 290
C C Y 539 290
G G Y 540 290
G G Y 541 290
A C N 542 291
C T N 543 292
A C N 544 293
T T Y 545 293
A G N 546 294
A A Y 547 294
A C N 548 295
G A N 549 296
G G Y 550 296
A T N 551 297
T T Y 552 297
T T Y 553 297
T G N 554 298
C A N 555 299
G C N 556 300
G T N 557 301
T T Y 558 301
G C N 559 302
A A Y 560 302
T T Y 561 302
G G Y 562 302
G T N 563 303
G G Y 564 303
G G Y 565 303
C C Y 566 303
C G N 567 304
G A N 568 305
T T Y 569 305
A A Y 570 305
G C N 571 306
T C N 572 307
G G Y 573 307
T T Y 574 307
A T N 575 308
G G Y 576 308
C G N 577 309
A C N 578 310
C C Y 579 310
T C N 580 311
T T Y 581 311
G A N 582 312
T A N 583 313
A A Y 584 313
C G N 585 314
A T N 586 315
C C Y 587 315
C T N 588 316
T A N 589 317
A A Y 590 317
G G Y 591 317
G C N 592 318
C C Y 593 318
A T N 594 319
A A Y 595 319
T A N 596 320
C T N 597 321
C T N 598 322
G A N 599 323
C G N 600 324
T T Y 601 324
C C Y 602 324
T T Y 603 324
T G N 604 325
A A Y 605 325
T A N 606 326
G G Y 607 326
C C Y 608 326
G G Y 609 326
C T N 610 327
G C N 611 328
T T Y 612 328
T T Y 613 328
G T N 614 329
T T Y 615 329
A C N 616 330
G T N 617 331
A A Y 618 331
A A Y 619 331
A A Y 620 331
T T Y 621 331
G G Y 622 331
A C N 623 332
T C N 624 333
C G N 625 334
G T N 626 335
A T N 627 336
G G Y 628 336
T T Y 629 336
C C Y 630 336
A A Y 631 336
T T Y 632 336
G C N 633 337
T C N 634 338
G G Y 635 338
G G Y 636 338
T C N 637 339
G G Y 638 339
G A N 639 340
A A Y 640 340
A C N 641 341
T G N 642 342
G C N 643 343
C T N 644 344
T G N 645 345
A A Y 646 345
G A N 647 346
T A N 648 347
A C N 649 348
A A Y 650 348
T C N 651 349
C C Y 652 349
C A N 653 350
G T N 654 351
A C N 655 352
T T Y 656 352
A A Y 657 352
A A Y 658 352
G G Y 659 352
A T N 660 353
T T Y 661 353
A A Y 662 353
T T Y 663 353
G A N 664 354
A A Y 665 354
A G N 666 355
A T N 667 356
T A N 668 357
A A Y 669 357
G G Y 670 357
T G N 671 358
C C Y 672 358
A T N 673 359
G G Y 674 359
G T N 675 360
A A Y 676 360
A A Y 677 360
G C N 678 361
C A N 679 362
T A N 680 363
G G Y 681 363
A G N 682 364
C G N 683 365
A A Y 684 365
T C N 685 366
C A N 686 367
C T N 687 368
T A N 688 369
A A Y 689 369
T A N 690 370
C C Y 691 370
C G N 692 371
T T Y 693 371
A G N 694 372
A A Y 695 372
T C N 696 373
T A N 697 374
A A Y 698 374
T T Y 699 374
T A N 700 375
C C Y 701 375
A C N 702 376
G G Y 703 376
G C N 704 377
T G N 705 378
G G Y 706 378
G G Y 707 378
G G Y 708 378
A A Y 709 378
C A N 710 379
T T Y 711 379
T T Y 712 379
G G Y 713 379
T T Y 714 379
T C N 715 380
T T Y 716 380
C G N 717 381
T T Y 718 381
T A N 719 382
T T Y 720 382
T T Y 721 382
G G Y 722 382
C C Y 723 382
G G Y 724 382
A T N 725 383
A C N 726 384
T T Y 727 384
G A N 728 385
T T Y 729 385
C C Y 730 385
G C N 731 386
G G Y 732 386
C A N 733 387
C T N 734 388
A T N 735 389
A G N 736 390
A A Y 737 390
A G N 738 391
C T N 739 392
C C Y 740 392
G G Y 741 392
A A Y 742 392
C T N 743 393
A A Y 744 393
G T N 745 394
C C Y 746 394
A T N 747 395
C C Y 748 395
T G N 749 396
T A N 750 397
A A Y 751 397
G G Y 752 397
G G Y 753 397
G C N 754 398
T T Y 755 398
C T N 756 399
G G Y 757 399
C T N 758 400
T T Y 759 400
T T Y 760 400
A A Y 761 400
G A N 762 401
G G Y 763 401
A C N 764 402
G G Y 765 402
C G N 766 403
A G N 767 404
G A N 768 405
A C N 769 406
C G N 770 407
A A Y 771 407
T C N 772 408
G T N 773 409
C G N 774 410
C G N 775 411
A A Y 776 411
C A N 777 412
C C Y 778 412
T T Y 779 412
G T N 780 413
T T Y 781 413
G G Y 782 413
A T N 783 414
G T N 784 415
C G N 785 416
C C Y 786 416
G G Y 787 416
C T N 788 417
G G Y 789 417
A G N 790 418
G G Y 791 418
C C Y 792 418
G A N 793 419
G G Y 794 419
C T N 795 420
G G Y 796 420
C C Y 797 420
G C N 798 421
T G N 799 422
C C Y 800 422
C G N 801 423
A A Y 802 423
G G Y 803 423
C C Y 804 423
T A N 805 424
G G Y 806 424
G C N 807 425
C A N 808 426
G C N 809 427
G G Y 810 427
T T Y 811 427
G C N 812 428
C A N 813 429
C G N 814 430
A C N 815 431
C A N 816 432
T T Y 817 432
T T Y 818 432
G G Y 819 432
A A Y 820 432
A C N 821 433
G C N 822 434
T T Y 823 434
A A Y 824 434
G G Y 825 434
T T Y 826 434
T T Y 827 434
C T N 828 435
A A Y 829 435
T T Y 830 435
G A N 831 436
T T Y 832 436
G G Y 833 436
A T N 834 437
G G Y 835 437
T T Y 836 437
G G Y 837 437
G T N 838 438
G C N 839 439
A A Y 840 439
A T N 841 440
G T N 842 441
C C Y 843 441
G G Y 844 441
C A N 845 442
T G N 846 443
A C N 847 444
T A N 848 445
A A Y 849 445
C T N 850 446
G G Y 851 446
A T N 852 447
C C Y 853 447
T T Y 854 447
T C N 855 448
A T N 856 449
C C Y 857 449
T T Y 858 449
C G N 859 450
G G Y 860 450
T G N 861 451
C C Y 862 451
C G N 863 452
T T Y 864 452
A C N 865 453
T G N 866 454
C G N 867 455
A T N 868 456
C C Y 869 456
A A Y 870 456
A A Y 871 456
G C N 872 457
C C Y 873 457
G T N 874 458
C C Y 875 458
A C N 876 459
T T Y 877 459
G A N 878 460
G A N 879 461
A A Y 880 461
T A N 881 462
T A N 882 463
C T N 883 464
G T N 884 465
G A N 885 466
G C N 886 467
C C Y 887 467
T T Y 888 467
T G N 889 468
A A Y 890 468
A A Y 891 468
T T Y 892 468
T T Y 893 468
C A N 894 469
C G N 895 470
T C N 896 471
G C N 897 472
A T N 898 473
C A N 899 474
C C Y 900 474
C A N 901 475
G G Y 902 475
C C Y 903 475
C C Y 904 475
