Rosalind_3405 Rosalind_0013
Rosalind_0013 Rosalind_3405
Rosalind_0977 Rosalind_0110
Rosalind_0110 Rosalind_0989
Rosalind_4796 Rosalind_0110
Rosalind_0110 Rosalind_6246
Rosalind_3570 Rosalind_0116
Rosalind_0116 Rosalind_6728
Rosalind_0186 Rosalind_9298
Rosalind_4655 Rosalind_0366
Rosalind_0366 Rosalind_9257
Rosalind_9718 Rosalind_0366
Rosalind_0977 Rosalind_0419
Rosalind_4796 Rosalind_0419
Rosalind_0419 Rosalind_8220
Rosalind_4111 Rosalind_0560
Rosalind_5613 Rosalind_0560
Rosalind_6246 Rosalind_0653
Rosalind_0653 Rosalind_7406
Rosalind_0653 Rosalind_9862
Rosalind_0977 Rosalind_7752
Rosalind_7975 Rosalind_0977
Rosalind_8407 Rosalind_0977
Rosalind_0989 Rosalind_1092
Rosalind_0989 Rosalind_1664
Rosalind_3163 Rosalind_0989
Rosalind_0989 Rosalind_3843
Rosalind_8194 Rosalind_1076
Rosalind_1092 Rosalind_1408
Rosalind_7647 Rosalind_1092
Rosalind_9298 Rosalind_1092
Rosalind_1106 Rosalind_1646
Rosalind_5720 Rosalind_1106
Rosalind_1106 Rosalind_6163
Rosalind_1106 Rosalind_6710
Rosalind_3330 Rosalind_1408
Rosalind_3347 Rosalind_1408
Rosalind_1408 Rosalind_4142
Rosalind_5212 Rosalind_1408
Rosalind_1408 Rosalind_5681
Rosalind_7111 Rosalind_1408
Rosalind_2993 Rosalind_1646
Rosalind_7647 Rosalind_1664
Rosalind_1664 Rosalind_8811
Rosalind_9298 Rosalind_1664
Rosalind_1874 Rosalind_4142
Rosalind_1874 Rosalind_5681
Rosalind_6299 Rosalind_1874
Rosalind_2087 Rosalind_3163
Rosalind_2087 Rosalind_4995
Rosalind_6299 Rosalind_2087
Rosalind_4977 Rosalind_2197
Rosalind_8856 Rosalind_2197
Rosalind_2241 Rosalind_3398
Rosalind_3405 Rosalind_2241
Rosalind_2241 Rosalind_4575
Rosalind_2843 Rosalind_6769
Rosalind_2904 Rosalind_3335
Rosalind_2904 Rosalind_7006
Rosalind_4461 Rosalind_2993
Rosalind_2993 Rosalind_6163
Rosalind_2993 Rosalind_6710
Rosalind_9257 Rosalind_2993
Rosalind_3211 Rosalind_3077
Rosalind_3077 Rosalind_5054
Rosalind_7089 Rosalind_3077
Rosalind_3077 Rosalind_9718
Rosalind_5270 Rosalind_3094
Rosalind_3094 Rosalind_9257
Rosalind_3163 Rosalind_6246
Rosalind_5270 Rosalind_3211
Rosalind_3211 Rosalind_5270
Rosalind_3211 Rosalind_7687
Rosalind_4898 Rosalind_3330
Rosalind_3335 Rosalind_6769
Rosalind_9873 Rosalind_3335
Rosalind_9933 Rosalind_3335
Rosalind_4977 Rosalind_3347
Rosalind_8856 Rosalind_3347
Rosalind_4901 Rosalind_3398
Rosalind_6710 Rosalind_3398
Rosalind_3398 Rosalind_7406
Rosalind_3398 Rosalind_9862
Rosalind_3405 Rosalind_9933
Rosalind_5054 Rosalind_3570
Rosalind_6728 Rosalind_3570
Rosalind_7899 Rosalind_3570
Rosalind_3843 Rosalind_4522
Rosalind_3843 Rosalind_4796
Rosalind_3843 Rosalind_6632
Rosalind_7647 Rosalind_3843
Rosalind_9298 Rosalind_3843
Rosalind_8194 Rosalind_4111
Rosalind_4142 Rosalind_9257
Rosalind_4204 Rosalind_4455
Rosalind_4204 Rosalind_5405
Rosalind_7406 Rosalind_4204
Rosalind_4455 Rosalind_6728
Rosalind_4575 Rosalind_4461
Rosalind_4461 Rosalind_9114
Rosalind_5405 Rosalind_4500
Rosalind_4500 Rosalind_8220
Rosalind_8464 Rosalind_4500
Rosalind_4522 Rosalind_7111
Rosalind_4901 Rosalind_4575
Rosalind_6710 Rosalind_4575
Rosalind_4604 Rosalind_4977
Rosalind_5405 Rosalind_4604
Rosalind_8464 Rosalind_4604
Rosalind_4655 Rosalind_5233
Rosalind_4655 Rosalind_5613
Rosalind_4655 Rosalind_8856
Rosalind_4655 Rosalind_8898
Rosalind_4796 Rosalind_7752
Rosalind_4898 Rosalind_9019
Rosalind_4995 Rosalind_6190
Rosalind_6685 Rosalind_5054
Rosalind_5233 Rosalind_8220
Rosalind_9718 Rosalind_5233
Rosalind_7089 Rosalind_5270
Rosalind_5405 Rosalind_6025
Rosalind_9718 Rosalind_5613
Rosalind_5681 Rosalind_8194
Rosalind_6025 Rosalind_8220
Rosalind_8464 Rosalind_6025
Rosalind_6163 Rosalind_6728
Rosalind_7099 Rosalind_6190
Rosalind_6190 Rosalind_7350
Rosalind_6190 Rosalind_9461
Rosalind_6200 Rosalind_8811
Rosalind_9114 Rosalind_6200
Rosalind_6246 Rosalind_7975
Rosalind_9114 Rosalind_6292
Rosalind_7687 Rosalind_6299
Rosalind_9461 Rosalind_6299
Rosalind_6632 Rosalind_8194
Rosalind_6685 Rosalind_9718
Rosalind_7699 Rosalind_6769
Rosalind_7006 Rosalind_7350
Rosalind_7006 Rosalind_9461
Rosalind_9873 Rosalind_7006
Rosalind_9933 Rosalind_7006
Rosalind_7089 Rosalind_7687
Rosalind_7975 Rosalind_7099
Rosalind_8407 Rosalind_7099
Rosalind_7350 Rosalind_9461
Rosalind_7406 Rosalind_9873
Rosalind_8039 Rosalind_8811
Rosalind_8194 Rosalind_8407
Rosalind_8811 Rosalind_8194
Rosalind_8220 Rosalind_8811
Rosalind_8898 Rosalind_8220
Rosalind_9718 Rosalind_8856
Rosalind_9718 Rosalind_8898
Rosalind_9257 Rosalind_9114
